
<svg id="truck_escena" version="1.1" xmlns="http://www.w3.org/2000/svg" xmlns:xlink="http://www.w3.org/1999/xlink">
    <g id="Group-16" stroke="none" stroke-width="1" fill="none" fill-rule="evenodd">
        <g id="Group-11">
            <path d="M566.038634,197.400626 L557.254336,197.400626 L557.254336,139.226605 L545.176029,139.226605 L545.176029,173.816882 L532.54927,173.816882 L532.54927,162.02501 L520.470963,162.02501 L520.470963,121.146128 L496.864448,121.146128 L496.864448,103.852169 L462.277356,103.852169 L462.277356,118.788933 L446.356587,118.788933 L446.356587,98.3489022 L431.533548,98.3489022 L431.533548,50.3960761 L425.494806,50.3960761 L405.181477,70.0484097 L405.181477,89.7019226 L392.554717,89.7019226 L392.554717,109.355435 L379.378682,109.355435 L379.378682,51.9679326 L372.790664,51.9679326 L372.790664,42.5344351 L367.849651,42.5344351 L367.849651,51.1814147 L361.261633,51.1814147 L361.261633,139.226605 L342.595309,139.226605 L342.595309,101.493794 L321.733527,101.493794 L321.733527,121.932646 L294.832181,121.932646 L294.832181,85.7705125 L289.342715,85.7705125 L289.342715,77.9100507 L274.519675,77.9100507 L274.519675,84.9851738 L270.127114,84.9851738 L270.127114,118.788933 L263.10017,118.788933 L263.10017,91.5202292 C263.119934,88.4602385 263.122404,85.2386991 263.10017,81.9039577 L263.10017,79.9736283 C262.751828,44.4635853 259.546758,-2.24401917 244.871948,0.0836963398 C233.050574,1.95860397 230.60642,46.3868396 230.459013,79.9736283 L230.42772,117.215897 L221.815534,117.215897 L221.815534,76.3381942 L187.228441,76.3381942 L187.228441,116.430559 L166.365836,116.430559 L166.365836,135.297554 L159.777818,135.297554 L159.777818,53.5397891 L153.739076,53.5397891 L153.739076,31.5290811 L151.542796,31.5290811 L151.542796,53.5397891 L144.406326,53.5397891 L144.406326,136.082892 L125.190725,136.082892 L125.190725,116.430559 L110.367685,116.430559 L110.367685,106.995882 L90.6036323,106.995882 L90.6036323,117.215897 L69.7418508,117.215897 L69.7418508,168.313616 L57.6635438,168.313616 L57.6635438,246.13997 L7.15568273,246.13997 L7.15568273,254.788129 L584.155683,256.359985 L584.155683,223.342744 L566.038634,223.342744" id="Fill-34" fill="#F4F5F5"></path>
            <polyline id="Fill-36" fill="#E2E3E4" points="0 256.364058 0 236.758172 20.8265078 236.758172 20.8265078 221.075228 36.3126183 221.075228 36.3126183 174.023454 49.1289308 174.023454 49.1289308 221.075228 63.5464813 221.075228 63.5464813 198.528606 66.4253455 198.528606 66.4253455 193.102948 84.7286418 193.102948 84.7286418 198.528606 87.1765575 198.528606 87.1765575 220.584125 92.7836942 220.584125 92.7836942 187.500847 101.995419 187.500847 101.995419 222.054493 104.798987 222.054493 104.798987 211.026733 113.209692 211.026733 113.209692 191.91195 125.625495 191.91195 125.625495 218.378573 138.842317 218.378573 138.842317 164.710144 145.650983 164.710144 145.650983 157.358304 180.895842 157.358304 180.895842 166.915696 186.102469 166.915696 186.102469 221.319309 193.311645 221.319309 193.311645 208.085997 200.120311 208.085997 200.120311 221.319309 207.329487 221.319309 207.329487 201.469342 223.349878 201.469342 223.349878 227.935964 238.969758 227.935964 238.969758 136.773153 243.775876 136.773153 243.775876 131.626866 251.385561 131.626866 251.385561 137.508337 255.791169 137.508337 255.791169 210.291549 271.811559 210.291549 271.811559 169.121248 287.83195 169.121248 287.83195 194.852686 324.278338 194.852686 324.278338 222.054493 340.298729 222.054493 340.298729 155.887936 358.722178 155.887936 358.722178 208.085997 371.538491 208.085997 371.538491 223.52486 384.354803 223.52486 384.354803 210.291549 390.762959 210.291549 390.762959 175.002719 398.372645 175.002719 398.372645 165.445328 431.614955 165.445328 431.614955 175.002719 438.824131 175.002719 438.824131 214.702653 445.232287 214.702653 445.232287 226.465596 453.242483 226.465596 453.242483 198.528606 489.688871 198.528606 489.688871 213.967469 521.329143 213.967469 521.329143 233.817436 538.951572 233.817436 538.951572 222.789677 549.364826 222.789677 549.364826 233.817436 562.581648 233.817436 562.581648 247.050747 577 247.050747 577 256.364058 569.258146 256.364058"></polyline>
            <g id="Group-9" transform="translate(0.000000, 94.000000)">
                <g id="Group-6" transform="translate(62.000000, 0.000000)">
                    <rect id="Rectangle-3" fill="#D4D5D6" x="239.54338" y="51.333885" width="80.2209139" height="124.98685"></rect>
                    <polygon id="Path-7" fill="#B0B1B2" points="266.034938 176.69272 266.034938 101.923801 304.466352 101.923801 304.466352 176.368057"></polygon>
                    <rect id="Rectangle-10" fill="#E2E3E4" x="262.676853" y="93.7401378" width="45.1475841" height="11.1595402"></rect>
                    <polygon id="Path-4" fill="#F4F5F5" points="8.53513212 50.5129032 7.83553113 171.810421 239.998121 173.24605 239.381597 47.9903821 125.776599 4.09183141"></polygon>
                    <path d="M123.528645,0.743969348 L0.113685161,49.5911756 L4.26325641e-14,58.0727167 L5.37721097,55.9628662 L5.37721097,176.281211 L241.567949,176.281211 L241.567949,55.9095782 L246.300846,57.9986104 L246.300846,49.5170692 L123.528645,0.743969348 Z M10.3710989,52.1180558 L122.680378,8.36335855 L234.989658,52.1180558 L234.989658,168.215054 L10.3710989,168.215054 L10.3710989,52.1180558 Z" id="Combined-Shape" fill="#FAF9F7"></path>
                    <polygon id="Path-2" fill="#D4D5D6" points="202.060071 0 323.212015 49.1230464 246.637043 49.4688759 123.876016 0.395233716"></polygon>
                    <polygon id="Path-3" fill="#E2E3E4" points="246.25955 49.101977 246.373235 57.6191182 322.471604 57.2958112 322.463588 49.2465569"></polygon>
                    <g id="Group-12" transform="translate(98.845020, 171.649134) scale(-1, 1) translate(-98.845020, -171.649134) translate(42.845020, 166.649134)">
                        <polygon id="Rectangle-18" fill="#D5D0CA" points="0.597795257 0 25.7051961 4.83580076 25.7051961 9.67160152 0.597795257 9.67160152"></polygon>
                        <rect id="Rectangle-19" fill="#E0DDD8" x="25.7051961" y="4.83580076" width="85.4847218" height="4.83580076"></rect>
                        <polygon id="Rectangle-20" fill="#FFFFFD" points="0 0 85.4806353 0 110.963701 4.88273022 25.2548064 5.20798977"></polygon>
                    </g>
                    <rect id="Rectangle-23" fill="#B0B1B2" x="69.027298" y="95.9720459" width="85.0714808" height="69.561134"></rect>
                    <g id="Group-14" transform="translate(65.669213, 92.624184)">
                        <rect id="Rectangle-21" fill="#D4D5D6" x="0" y="0" width="91.0414093" height="37.914914"></rect>
                        <path d="M4.65793257,4.55001326 L87.0561701,4.55001326 L87.0561701,7.62419548 L4.65793257,7.62419548 L4.65793257,4.55001326 Z M4.65793257,20.433288 L87.0561701,20.433288 L87.0561701,23.5074702 L4.65793257,23.5074702 L4.65793257,20.433288 Z M4.65793257,14.7972873 L87.0561701,14.7972873 L87.0561701,17.8714695 L4.65793257,17.8714695 L4.65793257,14.7972873 Z M4.65793257,30.6805621 L87.0561701,30.6805621 L87.0561701,33.7547443 L4.65793257,33.7547443 L4.65793257,30.6805621 Z M4.65793257,9.67365028 L87.0561701,9.67365028 L87.0561701,12.7478325 L4.65793257,12.7478325 L4.65793257,9.67365028 Z M4.65793257,25.5569251 L87.0561701,25.5569251 L87.0561701,28.6311073 L4.65793257,28.6311073 L4.65793257,25.5569251 Z" id="Combined-Shape" fill="#B0B1B2"></path>
                    </g>
                    <g id="Group-8" transform="translate(143.735242, 139.036158)">
                        <g id="Group" transform="translate(0.000000, 30.130759)">
                            <path d="M15.0965012,17.2107264 L0.571962236,6.42297888 L0.571962236,17.2107264 L15.0965012,17.2107264 Z M0.571962236,0.780255768 L0.571962236,6.42297888 L15.0965012,17.2107264 L20.684873,17.2107264 L20.684873,0.780255768 L0.571962236,0.780255768 Z" id="Combined-Shape" fill="#E5E3DD"></path>
                            <polygon id="Fill-222" fill="#EBEAE8" points="0.128046184 6.09331763 21.128789 6.09331763 21.128789 0.190200612 0.128046184 0.190200612"></polygon>
                        </g>
                        <g id="Group-Copy" transform="translate(21.267870, 30.874728)">
                            <path d="M15.0965012,17.2107264 L0.571962236,6.42297888 L0.571962236,17.2107264 L15.0965012,17.2107264 Z M0.571962236,0.780255768 L0.571962236,6.42297888 L15.0965012,17.2107264 L20.684873,17.2107264 L20.684873,0.780255768 L0.571962236,0.780255768 Z" id="Combined-Shape" fill="#E5E3DD"></path>
                            <polygon id="Fill-222" fill="#EBEAE8" points="0.128046184 6.09331763 21.128789 6.09331763 21.128789 0.190200612 0.128046184 0.190200612"></polygon>
                        </g>
                        <g id="Group-Copy-2" transform="translate(10.820495, 15.251372)">
                            <path d="M13.2425449,15.0136124 L0.50172126,5.60302413 L0.50172126,15.0136124 L13.2425449,15.0136124 Z M0.50172126,0.680648648 L0.50172126,5.60302413 L13.2425449,15.0136124 L18.1446254,15.0136124 L18.1446254,0.680648648 L0.50172126,0.680648648 Z" id="Combined-Shape" fill="#E5E3DD"></path>
                            <polygon id="Fill-222" fill="#EBEAE8" points="0.112321214 5.31544729 18.5340255 5.31544729 18.5340255 0.165919683 0.112321214 0.165919683"></polygon>
                        </g>
                        <g id="Group-Copy-4" transform="translate(29.849642, 15.623356)">
                            <path d="M13.2425449,15.0136124 L0.50172126,5.60302413 L0.50172126,15.0136124 L13.2425449,15.0136124 Z M0.50172126,0.680648648 L0.50172126,5.60302413 L13.2425449,15.0136124 L18.1446254,15.0136124 L18.1446254,0.680648648 L0.50172126,0.680648648 Z" id="Combined-Shape" fill="#E5E3DD"></path>
                            <polygon id="Fill-222" fill="#EBEAE8" points="0.112321214 5.31544729 18.5340255 5.31544729 18.5340255 0.165919683 0.112321214 0.165919683"></polygon>
                        </g>
                        <g id="Group-Copy-5" transform="translate(20.521629, 0.000000)">
                            <path d="M13.2425449,15.0136124 L0.50172126,5.60302413 L0.50172126,15.0136124 L13.2425449,15.0136124 Z M0.50172126,0.680648648 L0.50172126,5.60302413 L13.2425449,15.0136124 L18.1446254,15.0136124 L18.1446254,0.680648648 L0.50172126,0.680648648 Z" id="Combined-Shape" fill="#E5E3DD"></path>
                            <polygon id="Fill-222" fill="#EBEAE8" points="0.112321214 5.31544729 18.5340255 5.31544729 18.5340255 0.165919683 0.112321214 0.165919683"></polygon>
                        </g>
                        <g id="Group-Copy-3" transform="translate(42.535740, 30.502743)">
                            <path d="M15.0965012,17.2107264 L0.571962236,6.42297888 L0.571962236,17.2107264 L15.0965012,17.2107264 Z M0.571962236,0.780255768 L0.571962236,6.42297888 L15.0965012,17.2107264 L20.684873,17.2107264 L20.684873,0.780255768 L0.571962236,0.780255768 Z" id="Combined-Shape" fill="#E5E3DD"></path>
                            <polygon id="Fill-222" fill="#EBEAE8" points="0.128046184 6.09331763 21.128789 6.09331763 21.128789 0.190200612 0.128046184 0.190200612"></polygon>
                        </g>
                    </g>
                </g>
                <g id="Group-5" transform="translate(0.000000, 68.574627)">
                    <rect id="Rectangle-4" fill="#F4F5F5" x="4" y="128.533582" width="100" height="5.97761194"></rect>
                    <g id="Group-2" transform="translate(4.000000, 63.776119)">
                        <path d="M70.1636209,50.6615991 L70.1636209,0.212668574 L64.2381687,0.212668574 L64.2381687,51.1537585 C64.262451,51.1739526 64.2867332,51.1947237 64.3110155,51.2160717 C65.7852962,52.4894547 67.3896605,54.6559945 67.9417931,58.237853 C67.9510435,58.2995892 67.9614502,58.3613255 67.9712787,58.4224848 L99.6058739,58.4224848 L99.6058739,50.6615991 L70.1636209,50.6615991" id="Fill-207" fill="#3A4645"></path>
                        <path d="M65.0229528,50.6615991 L64.0531609,50.6615991 L64.0531609,51.3287492 C64.3744045,51.425191 64.6986787,51.5261712 65.0229528,51.6294206 L65.0229528,50.6615991" id="Fill-208" fill="#3A4645"></path>
                        <path d="M64.2381687,52.12158 L65.2079606,52.12158 C64.8846966,51.7900115 64.5614327,51.4674043 64.2381687,51.1537585 L64.2381687,52.12158" id="Fill-209" fill="#3A4645"></path>
                        <path d="M47.9765633,36.0577943 C47.456229,35.6048692 46.510897,35.8356591 45.8656824,36.5736096 L43.7056588,39.043638 C43.0602708,39.7821655 42.9593837,40.7480211 43.4799493,41.2009461 L51.7403153,48.3946658 L58.7937367,45.478636 C58.7920023,45.4769051 47.9765633,36.0577943 47.9765633,36.0577943 Z" id="Fill-210" fill="#3A4645"></path>
                        <path d="M20.4524753,42.5841466 L26.980065,42.5841466 L32.9906037,42.8412242 L32.9906037,54.8066738 L23.4488966,54.4109726 L19.4893626,50.5302412 L17.4562545,45.7251965 L22.8244285,42.8412242" id="Fill-211" fill="#3A4645"></path>
                        <path d="M24.6113532,47.0110806 C24.6113532,47.7005653 24.0514734,48.2590768 23.360585,48.2590768 L20.3074942,48.2590768 C19.6163167,48.2590768 19.0563213,47.7005653 19.0563213,47.0110806 L19.0563213,26.0386299 C19.0563213,25.3491452 19.6163167,24.7900568 20.3074942,24.7900568 L23.360585,24.7900568 C24.0514734,24.7900568 24.6113532,25.3491452 24.6113532,26.0386299 L24.6113532,47.0110806" id="Fill-212" fill="#3A4645"></path>
                        <path d="M57.757115,48.4437663 C57.6605641,48.2440754 48.6408569,29.7785794 44.9615726,21.1493469 C43.3451827,17.3586236 41.5310081,15.552116 40.2941733,14.7045403 C39.1490329,13.9198548 38.3119306,13.8079217 38.1392374,13.7923434 L38.0870305,13.7969592 L38.1244367,13.7917664 C38.1210257,13.7911895 38.1179615,13.7911895 38.1154754,13.7906125 L19.1488251,13.7906125 C17.8336511,13.7906125 16.8765249,14.1039097 16.3039837,14.7212726 C15.4550871,15.6369313 15.5174694,17.075906 15.5254478,17.2091872 L15.538514,17.3188123 L15.5341201,17.3984348 L15.5341201,39.5738777 L11.4682851,39.5738777 L11.4682851,17.4769034 C11.4238833,16.8151135 11.3732952,14.1079485 13.2754642,12.0135306 C14.650072,10.5007032 16.6263019,9.73332691 19.1488251,9.73332691 L38.1203319,9.73332691 C38.4935273,9.72871111 40.1077201,9.80256386 42.1650066,11.0788317 C44.8003845,12.7134009 46.999491,15.5671174 48.7027189,19.5609357 C52.3456376,28.1036221 61.9001329,47.9192387 61.9961057,48.118295 L57.757115,48.4437663" id="Fill-213" fill="#3B4646"></path>
                        <path d="M43.8091819,61.9831082 L44.0543985,55.4660668 L48.1280385,49.9224946 L57.757115,47.3353404 L24.241222,47.3353404 L19.7969305,38.2803006 L8.31633079,38.2803006 C8.31633079,38.2803006 4.98330007,39.0194051 4.98330007,49.9224946 L8.87175882,48.6289175 L12.94563,47.7051811 L17.5748137,47.7051811 L21.8339817,50.846231 L24.6113532,57.6839573 L25.1068615,61.9831082 L43.8091819,61.9831082 Z" id="Fill-216" fill="#5A5CBE"></path>
                        <path d="M42.0814297,34.4067665 L43.6114448,32.3509143 C43.8285152,32.059161 43.7987374,31.6200909 43.5450531,31.3707222 L43.3078326,31.1374019 C43.05422,30.8876216 42.6724767,30.921776 42.4553706,31.2135293 L38.9368261,35.9424831 C38.7197915,36.2338248 38.7495693,36.6728949 39.0032178,36.9222637 L39.2403309,37.155584 C39.4941941,37.4053643 39.875651,37.3712098 40.0926498,37.0794566 L41.6228081,35.0231929 L45.702586,39.0361373 L46.1608855,38.4197109 L42.0814297,34.4067665" id="Fill-219" fill="#3A4645"></path>
                        <path d="M69.1437322,62.9083985 C69.3862376,61.9060864 69.514685,60.8596923 69.514685,59.7835127 C69.514685,52.4225602 63.5062672,46.4554327 56.0930368,46.4554327 C48.6803507,46.4554327 42.6708444,52.4225602 42.6708444,59.7835127 C42.6708444,60.8596923 42.7993151,61.9060864 43.0418584,62.9083985 L47.0782761,62.9083985 C46.7360214,61.9328518 46.5500121,60.8846243 46.5500121,59.7932704 C46.5500121,54.5649977 50.8183247,50.3267188 56.0832598,50.3267188 C61.3485816,50.3267188 65.616121,54.5649977 65.616121,59.7932704 C65.616121,60.8846243 65.4301454,61.9328518 65.0879405,62.9083985 L69.1437322,62.9083985 Z" id="Combined-Shape" fill="#5A5CBE"></path>
                        <path d="M26.4728879,62.9083985 C26.7153932,61.9060864 26.8438406,60.8596923 26.8438406,59.7835127 C26.8438406,52.4225602 20.8354228,46.4554327 13.4221924,46.4554327 C6.00950635,46.4554327 0,52.4225602 0,59.7835127 C0,60.8596923 0.128470683,61.9060864 0.371014035,62.9083985 L4.4074317,62.9083985 C4.06517698,61.9328518 3.87916767,60.8846243 3.87916767,59.7932704 C3.87916767,54.5649977 8.14748027,50.3267188 13.4124154,50.3267188 C18.6777372,50.3267188 22.9452766,54.5649977 22.9452766,59.7932704 C22.9452766,60.8846243 22.759301,61.9328518 22.4170961,62.9083985 L26.4728879,62.9083985 Z" id="Combined-Shape-Copy" fill="#5A5CBE"></path>
                        <g id="Group-3" transform="translate(45.454431, 48.812363)">
                            <path d="M21.6274986,10.8755438 C21.6274986,16.7844273 16.8040615,21.5747924 10.8528691,21.5747924 C4.90211356,21.5747924 0.0778025605,16.7844273 0.0778025605,10.8755438 C0.0778025605,4.96622651 4.90211356,0.175861409 10.8528691,0.175861409 C16.8040615,0.175861409 21.6274986,4.96622651 21.6274986,10.8755438" id="Fill-117" fill="#3E3E3F"></path>
                            <path d="M17.8527298,10.8755438 C17.8527298,14.7139969 14.7189594,17.8261506 10.853306,17.8261506 C6.98721564,17.8261506 3.85388223,14.7139969 3.85388223,10.8755438 C3.85388223,7.03665693 6.98721564,3.92493711 10.853306,3.92493711 C14.7189594,3.92493711 17.8527298,7.03665693 17.8527298,10.8755438" id="Fill-118" fill="#BCBEBB"></path>
                            <path d="M12.8977722,10.8755438 C12.8977722,11.9966654 11.9823722,12.9056243 10.853306,12.9056243 C9.72336594,12.9056243 8.80752898,11.9966654 8.80752898,10.8755438 C8.80752898,9.75398839 9.72336594,8.84459565 10.853306,8.84459565 C11.9823722,8.84459565 12.8977722,9.75398839 12.8977722,10.8755438" id="Fill-119" fill="#DADCD8"></path>
                            <path d="M12.8977722,10.8755438 C12.8977722,11.9966654 11.9823722,12.9056243 10.853306,12.9056243 C9.72336594,12.9056243 8.80752898,11.9966654 8.80752898,10.8755438 C8.80752898,9.75398839 9.72336594,8.84459565 10.853306,8.84459565 C11.9823722,8.84459565 12.8977722,9.75398839 12.8977722,10.8755438 Z" id="Stroke-120" stroke="#2B2D2C"></path>
                            <polygon id="Fill-121" fill="#2B2D2C" points="8.83418263 6.00234364 11.8927984 6.00234364 11.8927984 5.10896993 8.83418263 5.10896993"></polygon>
                            <polygon id="Fill-122" fill="#2B2D2C" points="8.83418263 16.8491082 11.8927984 16.8491082 11.8927984 15.9557345 8.83418263 15.9557345"></polygon>
                            <polygon id="Fill-123" fill="#2B2D2C" points="14.9514142 12.4847698 15.8466068 12.4847698 15.8466068 9.44767575 14.9514142 9.44767575"></polygon>
                            <polygon id="Fill-124" fill="#2B2D2C" points="4.90167661 12.4847698 5.79686915 12.4847698 5.79686915 9.44767575 4.90167661 9.44767575"></polygon>
                        </g>
                        <g id="Group-3" transform="translate(2.783587, 48.812363)">
                            <path d="M21.6274986,10.8755438 C21.6274986,16.7844273 16.8040615,21.5747924 10.8528691,21.5747924 C4.90211356,21.5747924 0.0778025605,16.7844273 0.0778025605,10.8755438 C0.0778025605,4.96622651 4.90211356,0.175861409 10.8528691,0.175861409 C16.8040615,0.175861409 21.6274986,4.96622651 21.6274986,10.8755438" id="Fill-117" fill="#3E3E3F"></path>
                            <path d="M17.8527298,10.8755438 C17.8527298,14.7139969 14.7189594,17.8261506 10.853306,17.8261506 C6.98721564,17.8261506 3.85388223,14.7139969 3.85388223,10.8755438 C3.85388223,7.03665693 6.98721564,3.92493711 10.853306,3.92493711 C14.7189594,3.92493711 17.8527298,7.03665693 17.8527298,10.8755438" id="Fill-118" fill="#BCBEBB"></path>
                            <path d="M12.8977722,10.8755438 C12.8977722,11.9966654 11.9823722,12.9056243 10.853306,12.9056243 C9.72336594,12.9056243 8.80752898,11.9966654 8.80752898,10.8755438 C8.80752898,9.75398839 9.72336594,8.84459565 10.853306,8.84459565 C11.9823722,8.84459565 12.8977722,9.75398839 12.8977722,10.8755438" id="Fill-119" fill="#DADCD8"></path>
                            <path d="M12.8977722,10.8755438 C12.8977722,11.9966654 11.9823722,12.9056243 10.853306,12.9056243 C9.72336594,12.9056243 8.80752898,11.9966654 8.80752898,10.8755438 C8.80752898,9.75398839 9.72336594,8.84459565 10.853306,8.84459565 C11.9823722,8.84459565 12.8977722,9.75398839 12.8977722,10.8755438 Z" id="Stroke-120" stroke="#2B2D2C"></path>
                            <polygon id="Fill-121" fill="#2B2D2C" points="8.83418263 6.00234364 11.8927984 6.00234364 11.8927984 5.10896993 8.83418263 5.10896993"></polygon>
                            <polygon id="Fill-122" fill="#2B2D2C" points="8.83418263 16.8491082 11.8927984 16.8491082 11.8927984 15.9557345 8.83418263 15.9557345"></polygon>
                            <polygon id="Fill-123" fill="#2B2D2C" points="14.9514142 12.4847698 15.8466068 12.4847698 15.8466068 9.44767575 14.9514142 9.44767575"></polygon>
                            <polygon id="Fill-124" fill="#2B2D2C" points="4.90167661 12.4847698 5.79686915 12.4847698 5.79686915 9.44767575 4.90167661 9.44767575"></polygon>
                        </g>
                    </g>
                    <g id="Group" transform="translate(75.438826, 93.154927)">
                        <path d="M17.9253775,20.5951226 L0.679140075,7.68602291 L0.679140075,20.5951226 L17.9253775,20.5951226 Z M0.679140075,0.933688842 L0.679140075,7.68602291 L17.9253775,20.5951226 L24.5609331,20.5951226 L24.5609331,0.933688842 L0.679140075,0.933688842 Z" id="Combined-Shape" fill="#E5E3DD"></path>
                        <polygon id="Fill-222" fill="#EBEAE8" points="0.152040274 7.29153556 25.0880329 7.29153556 25.0880329 0.227602533 0.152040274 0.227602533"></polygon>
                    </g>
                    <g id="Group-22" transform="translate(38.206009, 98.574714) scale(-1, 1) translate(-38.206009, -98.574714) translate(26.706009, 83.132550)">
                        <path d="M6.4065613,18.966067 C7.74063761,18.966067 8.29508139,19.9056939 8.23515398,21.2198758 L7.94756826,27.5165097 L5.11684595,30.766267 L3.90021267,21.3584441 C3.74762826,20.05131 4.99169822,18.966067 6.32565929,18.966067 L6.4065613,18.966067 Z" id="Fill-214" fill="#454D59" transform="translate(6.063504, 24.866167) rotate(49.000000) translate(-6.063504, -24.866167) "></path>
                        <path d="M22.0537551,21.000303 C22.3076399,22.2922049 21.4646226,23.7606419 20.1344646,23.858174 L8.9110981,24.6823084 L8.54911992,20.3450448 L19.1954482,19.0289734 C21.0100962,18.8501647 18.7844844,3.69677602 22.0383123,20.9220955 L22.0537551,21.000303 Z" id="Fill-215" fill="#454D59"></path>
                        <path d="M15.4737256,7.93839714 C15.3077728,7.16075523 14.8494433,6.34219079 13.6481293,6.30138192 C13.1385158,6.28410352 12.920357,5.81622249 13.233593,5.41393121 C13.3324732,5.28684399 12.8256256,5.24501206 13.1485421,4.9667388 C13.2777318,4.85545223 12.8708016,4.80850498 13.0168171,4.61048537 C13.2945576,4.23433904 13.0667182,4.32266351 12.9013416,4.25514133 C12.5053597,4.09315628 13.0403271,3.51842196 13.2062799,3.10919657 C13.3722327,2.69997119 13.3577118,2.04521057 13.3577118,1.63598519 C13.3577118,1.22664613 19.0003384,0.490040439 18.6270597,2.45443596 C18.2535506,4.41871781 17.0090197,6.58772602 17.3824136,7.7335571 C17.7556922,8.87961552 15.9300959,9.28884091 15.4737256,7.93839714" id="Fill-217" fill="#F2B29E"></path>
                        <path d="M17.3462266,7.08334343 C19.3414636,7.1055098 20.0683139,8.78208347 20.4429755,10.5682386 C20.8600472,12.5559372 21.3529501,17.866546 21.6446353,19.1531051 C21.9296362,20.4112458 16.2998019,20.8518452 14.6921339,19.597001 C13.7175068,18.8360691 14.7245177,15.3384425 14.2241239,12.7843077 C13.9727745,11.5010451 14.2741402,8.12050243 15.4467583,7.52655726 C15.8950614,7.90588645 16.9303074,7.87519455 17.3462266,7.08334343" id="Fill-218" fill="#454D59"></path>
                        <g id="Group-4" transform="translate(12.334145, 13.385692) rotate(-9.000000) translate(-12.334145, -13.385692) translate(4.334145, 8.404348)">
                            <path d="M13.8332819,2.03230097 L13.8333971,2.03230097 C14.3237647,2.51598264 14.6288182,3.18711227 14.2305314,3.74695533 L10.3279894,9.23273528 C9.92958741,9.79269202 9.20988228,9.93046456 8.5896336,9.62456859 C7.96938492,9.31855894 7.79409725,8.46975729 8.19238402,7.90991423 L12.094926,2.4240206 C12.4933281,1.86406386 13.2459933,1.66843139 13.8332819,2.03230097" id="Fill-219" fill="#F2B29E" transform="translate(11.196516, 5.815552) rotate(2.000000) translate(-11.196516, -5.815552) "></path>
                            <path d="M14.796154,0.519985821 L14.796154,0.519985821 C15.669596,1.06095905 15.935351,2.20838155 15.3868999,3.06991466 L14.114595,5.06829863 L10.9386728,3.10094759 L12.2109778,1.10256363 C12.759544,0.241144191 13.9228273,-0.0211010762 14.796154,0.519985821" id="Fill-220" fill="#454D59"></path>
                            <path d="M3.14211689,6.82262512 L9.35820262,7.47067898 C10.0478288,7.54252077 10.1512036,8.36222195 10.1512036,9.04608304 L10.1512036,9.04619671 C10.1512036,9.72983045 9.2140311,10.0374315 8.55402289,9.82838557 L2.85942086,8.02449734 C1.27180551,7.52160481 1.48328011,6.64995474 3.14211689,6.82262512" id="Fill-221" fill="#F2B29E"></path>
                            <path d="M0.00895060814,8.24275087 C-0.093502212,9.62400022 0.73165211,8.54171275 0.794460644,8.14180861 C0.849893498,7.78816968 1.53387267,7.44135116 1.8918237,8.00596852 C2.41538181,8.8321491 2.83464318,7.99141828 3.48658424,8.19296179 C4.13414599,8.39302753 4.03895361,6.93322964 2.8874254,6.80773386 C1.33599698,6.63870104 0.111403428,6.86172887 0.00895060814,8.24275087 Z" id="Fill-222" fill="#F2B29E"></path>
                        </g>
                        <path d="M14.6095964,3.32281114 C14.9800994,3.1611794 15.2378952,3.62988235 15.2378952,3.62988235 C15.5116401,3.41977079 16.1078474,3.30661887 16.2528394,2.24006273 C16.3338416,1.64424569 17.2624164,1.73576106 17.9068576,1.75195332 C18.1459978,1.75796482 18.3418845,1.52023429 18.5631423,1.53982014 C18.9380917,1.57317426 19.0769941,1.4731119 18.2665853,0.721092865 C16.9777995,-0.474807451 14.1101472,0.0261830575 13.1918644,0.721092865 C12.2735815,1.41590571 12.9823992,2.9672601 13.1918644,3.85211386 C13.3987196,4.72639902 14.0668429,5.70792155 14.0828887,5.73138579 L14.6739729,4.68024623 C14.6739729,4.68024623 14.1787768,3.51062198 14.6095964,3.32281114 Z" id="Fill-71" fill="#6B4D39" transform="translate(15.797225, 2.865693) scale(-1, 1) translate(-15.797225, -2.865693) "></path>
                    </g>
                    <g id="Group-10">
                        <path d="M170.7627,0 L7.23730014,0 C3.24034227,0 0,3.24034227 0,7.23730014 L0,44.5599605 C0,48.5569184 3.24034227,51.7972607 7.23730014,51.7972607 L18.5852978,51.7972607 L18.3862535,65.1319924 C18.3281474,69.0003751 22.8258067,71.1626637 25.8114712,68.7024268 L46.3291058,51.7972607 L170.7627,51.7972607 C174.759658,51.7972607 178,48.5569184 178,44.5599605 L178,7.23730014 C178,3.24034227 174.759658,0 170.7627,0" id="Fill-32" fill="#5A5CBE"></path>
                        <path d="M35.344,32.1188657 C34.5119958,32.1188657 33.7653366,31.9913446 33.104,31.7362985 C32.4426634,31.4812525 31.882669,31.1066592 31.424,30.6125075 C30.965331,30.1183557 30.6133346,29.5152871 30.368,28.8032836 C30.1226654,28.09128 30,27.2730195 30,26.3484776 C30,25.4239357 30.1413319,24.6056752 30.424,23.8936716 C30.7066681,23.1816681 31.0933309,22.5785995 31.584,22.0844478 C32.0746691,21.590296 32.6506634,21.2157028 33.312,20.9606567 C33.9733366,20.7056107 34.6826629,20.5780896 35.44,20.5780896 C35.898669,20.5780896 36.3146648,20.6126265 36.688,20.6817015 C37.0613352,20.7507765 37.3866653,20.8278205 37.664,20.9128358 C37.9413347,20.9978512 38.1706658,21.0881786 38.352,21.1838209 C38.5333342,21.2794632 38.661333,21.3485371 38.736,21.3910448 L38.144,23.0328955 C37.8879987,22.8734917 37.522669,22.7220604 37.048,22.578597 C36.573331,22.4351336 36.0586694,22.363403 35.504,22.363403 C35.0239976,22.363403 34.5760021,22.4457604 34.16,22.6104776 C33.7439979,22.7751949 33.3840015,23.022267 33.08,23.3517015 C32.7759985,23.681136 32.5386675,24.0955796 32.368,24.5950448 C32.1973325,25.09451 32.112,25.6736683 32.112,26.3325373 C32.112,26.9170178 32.178666,27.4536692 32.312,27.9425075 C32.445334,28.4313457 32.6506653,28.8537594 32.928,29.2097612 C33.2053347,29.565763 33.5573312,29.8420587 33.984,30.0386567 C34.4106688,30.2352547 34.9226637,30.3335522 35.52,30.3335522 C36.2346702,30.3335522 36.8159978,30.2618216 37.264,30.1183582 C37.7120022,29.9748948 38.0586654,29.8394036 38.304,29.7118806 L38.848,31.3537313 C38.7199994,31.4387467 38.5466678,31.5237608 38.328,31.6087761 C38.1093322,31.6937915 37.8506682,31.7761489 37.552,31.8558507 C37.2533318,31.9355526 36.9173352,31.9993132 36.544,32.0471343 C36.1706648,32.0949555 35.7706688,32.1188657 35.344,32.1188657 Z M42.8319999,30.5248358 C43.4293362,30.5248358 43.882665,30.4929555 44.1919999,30.429194 L44.1919999,28.293194 C44.0853327,28.2613133 43.9306676,28.229433 43.7279999,28.1975522 C43.5253322,28.1656715 43.3013345,28.1497313 43.0559999,28.1497313 C42.8426655,28.1497313 42.6266677,28.1656715 42.4079999,28.1975522 C42.1893321,28.229433 41.9920008,28.2878802 41.8159999,28.3728955 C41.639999,28.4579109 41.4986671,28.5774619 41.3919999,28.7315522 C41.2853327,28.8856426 41.2319999,29.0795809 41.2319999,29.3133731 C41.2319999,29.7703306 41.3759985,30.0864767 41.6639999,30.2618209 C41.9520013,30.4371651 42.3413308,30.5248358 42.8319999,30.5248358 Z M42.6719999,23.3357612 C43.3120031,23.3357612 43.8506644,23.4154619 44.2879999,23.5748657 C44.7253354,23.7342695 45.0746653,23.9574314 45.3359999,24.2443582 C45.5973345,24.531285 45.7839993,24.8793114 45.8959999,25.2884478 C46.0080005,25.6975841 46.0639999,26.1465647 46.0639999,26.635403 L46.0639999,31.6884776 C45.7653317,31.7522391 45.3146696,31.8292831 44.7119999,31.9196119 C44.1093302,32.0099408 43.429337,32.0551045 42.6719999,32.0551045 C42.1706641,32.0551045 41.712002,32.0072841 41.2959999,31.9116418 C40.8799978,31.8159995 40.5253347,31.6619115 40.2319999,31.4493731 C39.9386651,31.2368348 39.7093341,30.960539 39.5439999,30.6204776 C39.3786657,30.2804162 39.2959999,29.8606592 39.2959999,29.361194 C39.2959999,28.8829827 39.3893323,28.4791658 39.5759999,28.1497313 C39.7626675,27.8202969 40.0159983,27.5519712 40.3359999,27.3447463 C40.6560015,27.1375214 41.0266645,26.9887467 41.4479999,26.8984179 C41.8693353,26.8080891 42.3093309,26.7629254 42.7679999,26.7629254 C42.9813343,26.7629254 43.2053321,26.7762088 43.4399999,26.8027761 C43.6746677,26.8293434 43.9253319,26.8745071 44.1919999,26.9382687 L44.1919999,26.6194627 C44.1919999,26.3962974 44.1653335,26.1837622 44.1119999,25.9818507 C44.0586663,25.7799393 43.9653339,25.6019411 43.8319999,25.4478507 C43.6986659,25.2937604 43.5226677,25.1742094 43.3039999,25.089194 C43.0853321,25.0041787 42.8106682,24.9616716 42.4799999,24.9616716 C42.0319977,24.9616716 41.6213351,24.9935519 41.2479999,25.0573134 C40.8746647,25.1210749 40.5706677,25.1954623 40.3359999,25.2804776 L40.0959999,23.7183284 C40.3413345,23.633313 40.6986642,23.5482989 41.1679999,23.4632836 C41.6373356,23.3782682 42.1386639,23.3357612 42.6719999,23.3357612 Z M52.5599998,25.2804776 C52.399999,25.227343 52.1786679,25.1715525 51.8959998,25.1131045 C51.6133317,25.0546564 51.285335,25.0254328 50.9119998,25.0254328 C50.6986654,25.0254328 50.472001,25.0466864 50.2319998,25.089194 C49.9919986,25.1317017 49.8240003,25.1688954 49.7279998,25.2007761 L49.7279998,31.8797612 L47.7919998,31.8797612 L47.7919998,23.9414925 C48.165335,23.8033426 48.631997,23.6731648 49.1919998,23.5509552 C49.7520026,23.4287457 50.3733297,23.3676418 51.0559998,23.3676418 C51.1840004,23.3676418 51.3333323,23.3756119 51.5039998,23.3915522 C51.6746673,23.4074926 51.8453323,23.4287461 52.0159998,23.4553134 C52.1866673,23.4818807 52.351999,23.513761 52.5119998,23.5509552 C52.6720006,23.5881494 52.7999993,23.6226864 52.8959998,23.6545672 L52.5599998,25.2804776 Z M55.1199997,27.4961791 C55.1199997,28.3144519 55.2986646,28.9122071 55.6559997,29.2894627 C56.0133348,29.6667183 56.4746635,29.8553433 57.0399997,29.8553433 C57.3493346,29.8553433 57.6399983,29.8128362 57.9119997,29.7278209 C58.184001,29.6428055 58.4053322,29.5418513 58.5759997,29.4249552 L58.5759997,25.1051343 C58.4373323,25.0732536 58.2666674,25.04403 58.0639997,25.0174627 C57.861332,24.9908954 57.6053346,24.9776119 57.2959997,24.9776119 C56.5919962,24.9776119 56.0533349,25.208744 55.6799997,25.6710149 C55.3066645,26.1332859 55.1199997,26.7416679 55.1199997,27.4961791 Z M60.5119997,31.0349254 C60.5119997,32.3632902 60.1733364,33.3356387 59.4959997,33.952 C58.818663,34.5683613 57.78134,34.8765373 56.3839997,34.8765373 C55.8719971,34.8765373 55.3733354,34.8340303 54.8879997,34.7490149 C54.4026639,34.6639996 53.9626683,34.5524186 53.5679997,34.4142687 L53.9199997,32.7724179 C54.250668,32.9105679 54.6266642,33.0221488 55.0479997,33.1071642 C55.4693351,33.1921795 55.9253306,33.2346866 56.4159997,33.2346866 C57.1946702,33.2346866 57.7493314,33.0752852 58.0799997,32.7564776 C58.410668,32.43767 58.5759997,31.9647793 58.5759997,31.337791 L58.5759997,31.0189851 C58.3839987,31.1146273 58.1306679,31.2102682 57.8159997,31.3059104 C57.5013314,31.4015527 57.141335,31.4493731 56.7359997,31.4493731 C56.2026637,31.4493731 55.7146686,31.3643591 55.2719997,31.1943284 C54.8293308,31.0242977 54.4506679,30.7745688 54.1359997,30.4451343 C53.8213314,30.1156998 53.5760006,29.7039129 53.3999997,29.2097612 C53.2239988,28.7156095 53.1359997,28.1444212 53.1359997,27.4961791 C53.1359997,26.8904447 53.2293321,26.3325399 53.4159997,25.8224478 C53.6026673,25.3123557 53.8746646,24.8766585 54.2319997,24.5153433 C54.5893348,24.154028 55.0239971,23.8724189 55.5359997,23.6705075 C56.0480022,23.468596 56.6293298,23.3676418 57.2799997,23.3676418 C57.9093362,23.3676418 58.5066635,23.4154622 59.0719997,23.5111045 C59.6373358,23.6067467 60.117331,23.707701 60.5119997,23.8139701 L60.5119997,31.0349254 Z M65.2799996,30.5248358 C65.8773359,30.5248358 66.3306647,30.4929555 66.6399996,30.429194 L66.6399996,28.293194 C66.5333324,28.2613133 66.3786673,28.229433 66.1759996,28.1975522 C65.9733319,28.1656715 65.7493341,28.1497313 65.5039996,28.1497313 C65.2906652,28.1497313 65.0746673,28.1656715 64.8559996,28.1975522 C64.6373318,28.229433 64.4400005,28.2878802 64.2639996,28.3728955 C64.0879987,28.4579109 63.9466668,28.5774619 63.8399996,28.7315522 C63.7333324,28.8856426 63.6799996,29.0795809 63.6799996,29.3133731 C63.6799996,29.7703306 63.8239981,30.0864767 64.1119996,30.2618209 C64.400001,30.4371651 64.7893305,30.5248358 65.2799996,30.5248358 Z M65.1199996,23.3357612 C65.7600028,23.3357612 66.2986641,23.4154619 66.7359996,23.5748657 C67.1733351,23.7342695 67.5226649,23.9574314 67.7839996,24.2443582 C68.0453342,24.531285 68.231999,24.8793114 68.3439996,25.2884478 C68.4560001,25.6975841 68.5119996,26.1465647 68.5119996,26.635403 L68.5119996,31.6884776 C68.2133314,31.7522391 67.7626693,31.8292831 67.1599996,31.9196119 C66.5573299,32.0099408 65.8773367,32.0551045 65.1199996,32.0551045 C64.6186637,32.0551045 64.1600017,32.0072841 63.7439996,31.9116418 C63.3279975,31.8159995 62.9733344,31.6619115 62.6799996,31.4493731 C62.3866648,31.2368348 62.1573337,30.960539 61.9919996,30.6204776 C61.8266654,30.2804162 61.7439996,29.8606592 61.7439996,29.361194 C61.7439996,28.8829827 61.837332,28.4791658 62.0239996,28.1497313 C62.2106672,27.8202969 62.463998,27.5519712 62.7839996,27.3447463 C63.1040012,27.1375214 63.4746641,26.9887467 63.8959996,26.8984179 C64.317335,26.8080891 64.7573306,26.7629254 65.2159996,26.7629254 C65.429334,26.7629254 65.6533317,26.7762088 65.8879996,26.8027761 C66.1226674,26.8293434 66.3733316,26.8745071 66.6399996,26.9382687 L66.6399996,26.6194627 C66.6399996,26.3962974 66.6133332,26.1837622 66.5599996,25.9818507 C66.506666,25.7799393 66.4133336,25.6019411 66.2799996,25.4478507 C66.1466656,25.2937604 65.9706673,25.1742094 65.7519996,25.089194 C65.5333318,25.0041787 65.2586679,24.9616716 64.9279996,24.9616716 C64.4799973,24.9616716 64.0693348,24.9935519 63.6959996,25.0573134 C63.3226644,25.1210749 63.0186674,25.1954623 62.7839996,25.2804776 L62.5439996,23.7183284 C62.7893341,23.633313 63.1466639,23.5482989 63.6159996,23.4632836 C64.0853353,23.3782682 64.5866636,23.3357612 65.1199996,23.3357612 Z M70.2399995,23.8139701 C70.6133347,23.707701 71.0986632,23.6067467 71.6959995,23.5111045 C72.2933358,23.4154622 72.9546625,23.3676418 73.6799995,23.3676418 C74.3626696,23.3676418 74.9333305,23.4606259 75.3919995,23.646597 C75.8506684,23.8325681 76.2159981,24.0929237 76.4879995,24.4276716 C76.7600008,24.7624196 76.9519989,25.1662364 77.0639995,25.6391343 C77.176,26.1120322 77.2319995,26.6300867 77.2319995,27.1933134 L77.2319995,31.8797612 L75.2959995,31.8797612 L75.2959995,27.4961791 C75.2959995,27.0498485 75.2666664,26.6699419 75.2079995,26.3564478 C75.1493325,26.0429537 75.0533335,25.7879114 74.9199995,25.5913134 C74.7866655,25.3947154 74.605334,25.2512542 74.3759995,25.1609254 C74.146665,25.0705966 73.8666678,25.0254328 73.5359995,25.0254328 C73.2906649,25.0254328 73.0346675,25.041373 72.7679995,25.0732537 C72.5013315,25.1051345 72.3040001,25.1317014 72.1759995,25.1529552 L72.1759995,31.8797612 L70.2399995,31.8797612 L70.2399995,23.8139701 Z M80.4799994,27.6874627 C80.4799994,28.5376162 80.682664,29.2044453 81.0879994,29.6879701 C81.4933347,30.171495 82.0533291,30.4132537 82.7679994,30.4132537 C83.0773343,30.4132537 83.3413316,30.3999703 83.5599994,30.373403 C83.7786671,30.3468357 83.957332,30.3176121 84.0959994,30.2857313 L84.0959994,25.5036418 C83.9253319,25.3867457 83.6986675,25.2778214 83.4159994,25.1768657 C83.1333313,25.0759099 82.832001,25.0254328 82.5119994,25.0254328 C81.8079959,25.0254328 81.2933343,25.2645349 80.9679994,25.7427463 C80.6426644,26.2209576 80.4799994,26.8691899 80.4799994,27.6874627 Z M86.0319994,31.6247164 C85.6479975,31.7416125 85.1653356,31.8478801 84.5839994,31.9435224 C84.0026631,32.0391647 83.3920026,32.0869851 82.7519994,32.0869851 C82.0906627,32.0869851 81.4986687,31.9860309 80.9759994,31.7841194 C80.4533301,31.5822079 80.0080012,31.2926288 79.6399994,30.9153731 C79.2719975,30.5381175 78.9893337,30.0811669 78.7919994,29.5445075 C78.5946651,29.0078481 78.4959994,28.4047795 78.4959994,27.7352836 C78.4959994,27.0764146 78.5786652,26.4786594 78.7439994,25.942 C78.9093335,25.4053406 79.1519978,24.9457333 79.4719994,24.5631642 C79.792001,24.1805951 80.1813304,23.8857025 80.6399994,23.6784776 C81.0986683,23.4712527 81.6266631,23.3676418 82.2239994,23.3676418 C82.6293347,23.3676418 82.9866645,23.4154622 83.2959994,23.5111045 C83.6053343,23.6067467 83.8719983,23.7130143 84.0959994,23.8299104 L84.0959994,19.8288955 L86.0319994,19.5100896 L86.0319994,31.6247164 Z M95.4239993,27.703403 C95.4239993,28.362272 95.3280002,28.9626839 95.1359993,29.5046567 C94.9439983,30.0466296 94.672001,30.5088936 94.3199993,30.8914627 C93.9679975,31.2740318 93.5440017,31.571581 93.0479993,31.7841194 C92.5519968,31.9966578 92.0053356,32.1029254 91.4079993,32.1029254 C90.8106629,32.1029254 90.2666684,31.9966578 89.7759993,31.7841194 C89.2853301,31.571581 88.864001,31.2740318 88.5119993,30.8914627 C88.1599975,30.5088936 87.8853336,30.0466296 87.6879993,29.5046567 C87.4906649,28.9626839 87.3919993,28.362272 87.3919993,27.703403 C87.3919993,27.044534 87.4906649,26.4467788 87.6879993,25.9101194 C87.8853336,25.37346 88.1626641,24.9138527 88.5199993,24.5312836 C88.8773344,24.1487145 89.3013301,23.8538219 89.7919993,23.646597 C90.2826684,23.4393721 90.8213297,23.3357612 91.4079993,23.3357612 C91.9946689,23.3357612 92.5359968,23.4393721 93.0319993,23.646597 C93.5280017,23.8538219 93.9519975,24.1487145 94.3039993,24.5312836 C94.656001,24.9138527 94.9306649,25.37346 95.1279993,25.9101194 C95.3253336,26.4467788 95.4239993,27.044534 95.4239993,27.703403 Z M93.4399993,27.703403 C93.4399993,26.8745033 93.2613344,26.2183009 92.9039993,25.7347761 C92.5466641,25.2512513 92.0480025,25.0094925 91.4079993,25.0094925 C90.7679961,25.0094925 90.2693344,25.2512513 89.9119993,25.7347761 C89.5546641,26.2183009 89.3759993,26.8745033 89.3759993,27.703403 C89.3759993,28.5429296 89.5546641,29.207102 89.9119993,29.6959403 C90.2693344,30.1847786 90.7679961,30.429194 91.4079993,30.429194 C92.0480025,30.429194 92.5466641,30.1847786 92.9039993,29.6959403 C93.2613344,29.207102 93.4399993,28.5429296 93.4399993,27.703403 Z M99.4079991,27.7193433 C99.4079991,27.102982 99.5039981,26.5264803 99.6959991,25.9898209 C99.888,25.4531615 100.162664,24.9882408 100.519999,24.5950448 C100.877334,24.2018488 101.311996,23.8936728 101.823999,23.6705075 C102.336002,23.4473422 102.911996,23.3357612 103.551999,23.3357612 C104.341336,23.3357612 105.087996,23.4792224 105.791999,23.7661493 L105.375999,25.3442388 C105.151998,25.2485965 104.898667,25.1688958 104.615999,25.1051343 C104.333331,25.0413728 104.032001,25.0094925 103.711999,25.0094925 C102.954662,25.0094925 102.378668,25.2459379 101.983999,25.7188358 C101.58933,26.1917337 101.391999,26.8585629 101.391999,27.7193433 C101.391999,28.548243 101.578664,29.2044453 101.951999,29.6879701 C102.325334,30.171495 102.954661,30.4132537 103.839999,30.4132537 C104.170667,30.4132537 104.495997,30.3813735 104.815999,30.3176119 C105.136001,30.2538504 105.413331,30.1741497 105.647999,30.0785075 L105.919999,31.6725373 C105.706665,31.7788065 105.384001,31.8744473 104.951999,31.9594627 C104.519997,32.044478 104.074668,32.0869851 103.615999,32.0869851 C102.901329,32.0869851 102.280002,31.9780608 101.751999,31.760209 C101.223996,31.5423571 100.786667,31.2394945 100.439999,30.8516119 C100.093331,30.4637294 99.8346666,30.0014654 99.6639991,29.464806 C99.4933315,28.9281466 99.4079991,28.3463315 99.4079991,27.7193433 Z M109.727999,30.5248358 C110.325335,30.5248358 110.778664,30.4929555 111.087999,30.429194 L111.087999,28.293194 C110.981332,28.2613133 110.826667,28.229433 110.623999,28.1975522 C110.421331,28.1656715 110.197334,28.1497313 109.951999,28.1497313 C109.738665,28.1497313 109.522667,28.1656715 109.303999,28.1975522 C109.085331,28.229433 108.888,28.2878802 108.711999,28.3728955 C108.535998,28.4579109 108.394666,28.5774619 108.287999,28.7315522 C108.181332,28.8856426 108.127999,29.0795809 108.127999,29.3133731 C108.127999,29.7703306 108.271998,30.0864767 108.559999,30.2618209 C108.848,30.4371651 109.23733,30.5248358 109.727999,30.5248358 Z M109.567999,23.3357612 C110.208002,23.3357612 110.746663,23.4154619 111.183999,23.5748657 C111.621334,23.7342695 111.970664,23.9574314 112.231999,24.2443582 C112.493334,24.531285 112.679998,24.8793114 112.791999,25.2884478 C112.904,25.6975841 112.959999,26.1465647 112.959999,26.635403 L112.959999,31.6884776 C112.661331,31.7522391 112.210669,31.8292831 111.607999,31.9196119 C111.005329,32.0099408 110.325336,32.0551045 109.567999,32.0551045 C109.066663,32.0551045 108.608001,32.0072841 108.191999,31.9116418 C107.775997,31.8159995 107.421334,31.6619115 107.127999,31.4493731 C106.834664,31.2368348 106.605333,30.960539 106.439999,30.6204776 C106.274665,30.2804162 106.191999,29.8606592 106.191999,29.361194 C106.191999,28.8829827 106.285331,28.4791658 106.471999,28.1497313 C106.658667,27.8202969 106.911997,27.5519712 107.231999,27.3447463 C107.552001,27.1375214 107.922664,26.9887467 108.343999,26.8984179 C108.765334,26.8080891 109.20533,26.7629254 109.663999,26.7629254 C109.877333,26.7629254 110.101331,26.7762088 110.335999,26.8027761 C110.570667,26.8293434 110.821331,26.8745071 111.087999,26.9382687 L111.087999,26.6194627 C111.087999,26.3962974 111.061333,26.1837622 111.007999,25.9818507 C110.954665,25.7799393 110.861333,25.6019411 110.727999,25.4478507 C110.594665,25.2937604 110.418667,25.1742094 110.199999,25.089194 C109.981331,25.0041787 109.706667,24.9616716 109.375999,24.9616716 C108.927997,24.9616716 108.517334,24.9935519 108.143999,25.0573134 C107.770664,25.1210749 107.466667,25.1954623 107.231999,25.2804776 L106.991999,23.7183284 C107.237334,23.633313 107.594663,23.5482989 108.063999,23.4632836 C108.533335,23.3782682 109.034663,23.3357612 109.567999,23.3357612 Z M119.455999,27.4961791 C119.455999,26.6247718 119.346667,25.9951363 119.127999,25.6072537 C118.909331,25.2193712 118.501335,25.0254328 117.903999,25.0254328 C117.690664,25.0254328 117.456,25.041373 117.199999,25.0732537 C116.943998,25.1051345 116.751999,25.1317014 116.623999,25.1529552 L116.623999,31.8797612 L114.687999,31.8797612 L114.687999,23.8139701 C115.061334,23.707701 115.549329,23.6067467 116.151999,23.5111045 C116.754669,23.4154622 117.391995,23.3676418 118.063999,23.3676418 C118.640002,23.3676418 119.111997,23.4420291 119.479999,23.590806 C119.848001,23.7395828 120.154664,23.9361779 120.399999,24.180597 C120.517333,24.0955817 120.666665,24.0052542 120.847999,23.9096119 C121.029333,23.8139697 121.231998,23.7262989 121.455999,23.646597 C121.68,23.5668951 121.917331,23.5004779 122.167999,23.4473433 C122.418667,23.3942087 122.671998,23.3676418 122.927999,23.3676418 C123.578669,23.3676418 124.114663,23.4606259 124.535999,23.646597 C124.957334,23.8325681 125.287998,24.0929237 125.527999,24.4276716 C125.768,24.7624196 125.933332,25.1662364 126.023999,25.6391343 C126.114666,26.1120322 126.159999,26.6300867 126.159999,27.1933134 L126.159999,31.8797612 L124.223999,31.8797612 L124.223999,27.4961791 C124.223999,26.6247718 124.117333,25.9951363 123.903999,25.6072537 C123.690664,25.2193712 123.280002,25.0254328 122.671999,25.0254328 C122.362664,25.0254328 122.069334,25.0759099 121.791999,25.1768657 C121.514664,25.2778214 121.306666,25.3761189 121.167999,25.4717612 C121.253333,25.7374342 121.311999,26.0190433 121.343999,26.316597 C121.375999,26.6141507 121.391999,26.9329535 121.391999,27.2730149 L121.391999,31.8797612 L119.455999,31.8797612 L119.455999,27.4961791 Z M129.839999,31.8797612 L127.903999,31.8797612 L127.903999,23.5429851 L129.839999,23.5429851 L129.839999,31.8797612 Z M130.047999,21.1041194 C130.047999,21.4654346 129.930667,21.7523571 129.695999,21.9648955 C129.461331,22.1774339 129.184,22.2837015 128.863999,22.2837015 C128.53333,22.2837015 128.250667,22.1774339 128.015999,21.9648955 C127.781331,21.7523571 127.663999,21.4654346 127.663999,21.1041194 C127.663999,20.7321772 127.781331,20.4399414 128.015999,20.227403 C128.250667,20.0148646 128.53333,19.908597 128.863999,19.908597 C129.184,19.908597 129.461331,20.0148646 129.695999,20.227403 C129.930667,20.4399414 130.047999,20.7321772 130.047999,21.1041194 Z M139.231999,27.703403 C139.231999,28.362272 139.136,28.9626839 138.943999,29.5046567 C138.751998,30.0466296 138.48,30.5088936 138.127999,30.8914627 C137.775997,31.2740318 137.352001,31.571581 136.855999,31.7841194 C136.359996,31.9966578 135.813335,32.1029254 135.215999,32.1029254 C134.618662,32.1029254 134.074668,31.9966578 133.583999,31.7841194 C133.09333,31.571581 132.672,31.2740318 132.319999,30.8914627 C131.967997,30.5088936 131.693333,30.0466296 131.495999,29.5046567 C131.298664,28.9626839 131.199999,28.362272 131.199999,27.703403 C131.199999,27.044534 131.298664,26.4467788 131.495999,25.9101194 C131.693333,25.37346 131.970664,24.9138527 132.327999,24.5312836 C132.685334,24.1487145 133.10933,23.8538219 133.599999,23.646597 C134.090668,23.4393721 134.629329,23.3357612 135.215999,23.3357612 C135.802668,23.3357612 136.343996,23.4393721 136.839999,23.646597 C137.336001,23.8538219 137.759997,24.1487145 138.111999,24.5312836 C138.464,24.9138527 138.738664,25.37346 138.935999,25.9101194 C139.133333,26.4467788 139.231999,27.044534 139.231999,27.703403 Z M137.247999,27.703403 C137.247999,26.8745033 137.069334,26.2183009 136.711999,25.7347761 C136.354664,25.2512513 135.856002,25.0094925 135.215999,25.0094925 C134.575995,25.0094925 134.077334,25.2512513 133.719999,25.7347761 C133.362664,26.2183009 133.183999,26.8745033 133.183999,27.703403 C133.183999,28.5429296 133.362664,29.207102 133.719999,29.6959403 C134.077334,30.1847786 134.575995,30.429194 135.215999,30.429194 C135.856002,30.429194 136.354664,30.1847786 136.711999,29.6959403 C137.069334,29.207102 137.247999,28.5429296 137.247999,27.703403 Z M137.311999,20.1317612 L134.703999,22.6503284 L133.743999,21.7895522 L136.095999,19 L137.311999,20.1317612 Z M140.591999,23.8139701 C140.965334,23.707701 141.450662,23.6067467 142.047999,23.5111045 C142.645335,23.4154622 143.306662,23.3676418 144.031999,23.3676418 C144.714669,23.3676418 145.28533,23.4606259 145.743999,23.646597 C146.202667,23.8325681 146.567997,24.0929237 146.839999,24.4276716 C147.112,24.7624196 147.303998,25.1662364 147.415999,25.6391343 C147.527999,26.1120322 147.583999,26.6300867 147.583999,27.1933134 L147.583999,31.8797612 L145.647999,31.8797612 L145.647999,27.4961791 C145.647999,27.0498485 145.618665,26.6699419 145.559999,26.3564478 C145.501332,26.0429537 145.405333,25.7879114 145.271999,25.5913134 C145.138665,25.3947154 144.957333,25.2512542 144.727999,25.1609254 C144.498664,25.0705966 144.218667,25.0254328 143.887999,25.0254328 C143.642664,25.0254328 143.386667,25.041373 143.119999,25.0732537 C142.853331,25.1051345 142.655999,25.1317014 142.527999,25.1529552 L142.527999,31.8797612 L140.591999,31.8797612 L140.591999,23.8139701 Z" id="Cargando-camión" fill="#FFFFFF"></path>
                    </g>
                </g>
                <g id="Group-7" transform="translate(225.000000, 36.641791)">
                    <rect id="Rectangle-4" fill="#F4F5F5" x="3" y="162.458955" width="248" height="5.97761194"></rect>
                    <g id="Group-13" transform="translate(58.263035, 0.000000)">
                        <g id="8-copy" transform="translate(96.545050, 121.485513) scale(-1, 1) translate(-96.545050, -121.485513) translate(0.045050, 76.653424)">
                            <polygon id="Fill-88" fill="#434544" points="165.187674 75.202561 177.756301 75.202561 177.756301 68.9727631 165.187674 68.9727631"></polygon>
                            <path d="M179.55182,75.9501368 C179.55182,77.0114274 178.683238,77.8724744 177.61266,77.8724744 L165.780195,77.8724744 C164.709617,77.8724744 163.841035,77.0114274 163.841035,75.9501368 L163.841035,75.789942 C163.841035,74.7286514 164.709617,73.8676043 165.780195,73.8676043 L177.61266,73.8676043 C178.683238,73.8676043 179.55182,74.7286514 179.55182,75.789942 L179.55182,75.9501368" id="Fill-91" fill="#3E3E3F"></path>
                            <polygon id="Fill-92" fill="#3E3E3F" points="114.464285 69.4177486 184.489495 69.4177486 184.489495 65.8578641 114.464285 65.8578641"></polygon>
                            <polyline id="Fill-93" fill="#CBCCC9" points="192.120447 72.9776332 185.262016 72.9776332 182.029635 63.6329363 192.120447 63.6329363 192.120447 72.9776332"></polyline>
                            <path d="M191.222688,69.8961081 C191.222688,70.3695728 190.836203,70.7527053 190.358595,70.7527053 L186.251347,70.7527053 C185.773739,70.7527053 185.387254,70.3695728 185.387254,69.8961081 L185.387254,69.8293603 C185.387254,69.3558956 185.773739,68.9727631 186.251347,68.9727631 L190.358595,68.9727631 C190.836203,68.9727631 191.222688,69.3558956 191.222688,69.8293603 L191.222688,69.8961081" id="Fill-94" fill="#9194CE"></path>
                            <path d="M192.569326,77.2316952 C192.569326,77.5854587 192.279799,77.8724744 191.92294,77.8724744 L185.135881,77.8724744 C184.779022,77.8724744 184.489495,77.5854587 184.489495,77.2316952 L184.489495,72.7284413 C184.489495,72.3746777 184.779022,72.0876621 185.135881,72.0876621 L191.92294,72.0876621 C192.279799,72.0876621 192.569326,72.3746777 192.569326,72.7284413 L192.569326,77.2316952" id="Fill-95" fill="#3E3E3F"></path>
                            <polyline id="Stroke-96" stroke="#3E3E3F" stroke-width="3" stroke-linecap="round" stroke-linejoin="round" points="45.3278569 33.825578 50.4989493 35.0252591 50.4989493 62.7429651"></polyline>
                            <path d="M148.579131,76.5375177 L24.3651819,76.5375177 C18.2963304,76.5375177 14.0229971,74.3214896 14.0229971,68.3052847 C14.0229971,62.2890798 18.2963304,60.0730517 24.3651819,60.0730517 L51.1902238,60.0730517 L55.1313862,63.2480237 C56.8923407,63.2480237 148.579131,63.1848358 148.579131,63.1848358 L148.579131,76.5375177" id="Fill-97" fill="#3E3E3F"></path>
                            <path d="M44.6051608,24.4742063 C44.5414199,24.4742063 44.4821678,24.4888908 44.4188758,24.4924507 L13.3766106,24.4742063 L7.59953076,33.9946725 L2.17347478,50.4471239 L2.11916035,75.202561 L21.9955468,75.202561 C21.9955468,64.967893 31.475434,64.5229074 31.475434,64.5229074 L48.0301117,64.5229074 L48.0301117,28.1764862 C48.0301117,26.2968671 46.7436229,24.4742063 44.8475557,24.4742063 L44.6051608,24.4742063 Z" id="Fill-98" fill="#5A5CBE"></path>
                            <path d="M41.7457981,50.1661771 L10.6478718,51.0647639 C10.6478718,51.0647639 12.0833886,33.8189032 21.3482625,27.5891052 L41.7457981,27.5891052 L41.7457981,50.1661771 Z" id="Fill-99" fill="#9194CE"></path>
                            <g id="Group-15" transform="translate(26.000000, 26.899254)" fill="#A7AAE0">
                                <polygon id="Fill-32" points="3.04139783 23.594631 15.6671813 4.60560543 15.6671813 0.840410404 0.228146735 23.7470841"></polygon>
                                <polygon id="Fill-33" points="11.193967 23.3502723 15.686015 16.2355965 15.686015 7.03303736 4.17359874 23.5989225"></polygon>
                            </g>
                            <polygon id="Fill-100" fill="#9194CE" points="36.3592435 60.9630228 41.2969185 60.9630228 41.2969185 52.9532826 36.3592435 52.9532826"></polygon>
                            <path d="M13.3766106,24.7727916 C13.3766106,24.7727916 2.11916035,33.4767093 2.17347478,51.8995568 C2.17347478,51.8995568 3.95597546,52.0183679 4.05832,51.1510911 C5.78156859,36.5466647 12.0030391,29.2582461 13.3766106,24.7727916" id="Fill-104" fill="#9194CE"></path>
                            <path d="M3.14215684,71.6756054 C3.14215684,72.1490701 2.75522267,72.5326476 2.27761483,72.5326476 L2.21118066,72.5326476 C1.73357282,72.5326476 1.34663865,72.1490701 1.34663865,71.6756054 L1.34663865,59.1501516 C1.34663865,58.676687 1.73357282,58.2931094 2.21118066,58.2931094 L2.27761483,58.2931094 C2.75522267,58.2931094 3.14215684,58.676687 3.14215684,59.1501516 L3.14215684,71.6756054" id="Fill-105" fill="#898C8D"></path>
                            <path d="M23.3417365,76.8183036 C23.3417365,77.6459768 22.6648262,78.31746 21.8294613,78.31746 L1.5122752,78.31746 C0.67691036,78.31746 0,77.6459768 0,76.8183036 L0,76.7017174 C0,75.8740442 0.67691036,75.202561 1.5122752,75.202561 L21.8294613,75.202561 C22.6648262,75.202561 23.3417365,75.8740442 23.3417365,76.7017174 L23.3417365,76.8183036" id="Fill-106" fill="#5C5E5E"></path>
                            <path d="M13.2958122,24.4742063 C13.2958122,24.4742063 16.7701399,7.44238363 48.2814843,7.52248103 C48.2814843,7.52248103 49.1702658,19.9233388 47.7966944,22.2461635 C47.7966944,22.2461635 46.7463162,24.4742063 45.4535431,24.4742063 L13.2958122,24.4742063" id="Fill-107" fill="#5A5CBE"></path>
                            <g id="Group-17" transform="translate(26.558123, 66.207199)">
                                <path d="M22.2081511,11.3497811 C22.2081511,17.4100396 17.2525209,22.3231252 11.1387814,22.3231252 C5.02504198,22.3231252 0.069411761,17.4100396 0.069411761,11.3497811 C0.069411761,5.28907767 5.02504198,0.375992011 11.1387814,0.375992011 C17.2525209,0.375992011 22.2081511,5.28907767 22.2081511,11.3497811" id="Fill-108" fill="#3E3E3F"></path>
                                <path d="M18.3298318,11.3497811 C18.3298318,15.2865684 15.1100188,18.4784499 11.1387814,18.4784499 C7.16754407,18.4784499 3.94773106,15.2865684 3.94773106,11.3497811 C3.94773106,7.4125488 7.16754407,4.22111231 11.1387814,4.22111231 C15.1100188,4.22111231 18.3298318,7.4125488 18.3298318,11.3497811" id="Fill-109" fill="#BCBEBB"></path>
                                <path d="M13.2395377,11.3497811 C13.2395377,12.4996238 12.2986862,13.4318686 11.1387814,13.4318686 C9.97887668,13.4318686 9.03802515,12.4996238 9.03802515,11.3497811 C9.03802515,10.1994934 9.97887668,9.26680366 11.1387814,9.26680366 C12.2986862,9.26680366 13.2395377,10.1994934 13.2395377,11.3497811" id="Fill-110" fill="#DADCD8"></path>
                                <path d="M13.2395377,11.3497811 C13.2395377,12.4996238 12.2986862,13.4318686 11.1387814,13.4318686 C9.97887668,13.4318686 9.03802515,12.4996238 9.03802515,11.3497811 C9.03802515,10.1994934 9.97887668,9.26680366 11.1387814,9.26680366 C12.2986862,9.26680366 13.2395377,10.1994934 13.2395377,11.3497811 Z" id="Stroke-111" stroke="#2B2D2C"></path>
                                <polygon id="Fill-112" fill="#2B2D2C" points="8.90336128 6.35173826 12.4943977 6.35173826 12.4943977 5.43547792 8.90336128 5.43547792"></polygon>
                                <polygon id="Fill-113" fill="#2B2D2C" points="8.90336128 17.4763775 12.4943977 17.4763775 12.4943977 16.5601171 8.90336128 16.5601171"></polygon>
                                <polygon id="Fill-114" fill="#2B2D2C" points="15.187675 13.0002326 16.1073182 13.0002326 16.1073182 9.8853336 15.187675 9.8853336"></polygon>
                                <polygon id="Fill-115" fill="#2B2D2C" points="4.86344534 13.0002326 5.78308859 13.0002326 5.78308859 9.8853336 4.86344534 9.8853336"></polygon>
                            </g>
                            <polygon id="Fill-116" fill="#757777" points="64.638655 75.202561 142.294817 75.202561 142.294817 72.0876621 64.638655 72.0876621"></polygon>
                            <g id="Group-3" transform="translate(111.072676, 66.415878)">
                                <path d="M22.3697874,11.1411019 C22.3697874,17.2013604 17.4146061,22.1144461 11.3008667,22.1144461 C5.18757607,22.1144461 0.231496975,17.2013604 0.231496975,11.1411019 C0.231496975,5.0803985 5.18757607,0.167312845 11.3008667,0.167312845 C17.4146061,0.167312845 22.3697874,5.0803985 22.3697874,11.1411019" id="Fill-117" fill="#3E3E3F"></path>
                                <path d="M18.491917,11.1411019 C18.491917,15.0778893 15.2725529,18.2697707 11.3013155,18.2697707 C7.32962928,18.2697707 4.11071404,15.0778893 4.11071404,11.1411019 C4.11071404,7.20386964 7.32962928,4.01243314 11.3013155,4.01243314 C15.2725529,4.01243314 18.491917,7.20386964 18.491917,11.1411019" id="Fill-118" fill="#BCBEBB"></path>
                                <path d="M13.4016229,11.1411019 C13.4016229,12.2909447 12.4612203,13.2231894 11.3013155,13.2231894 C10.140513,13.2231894 9.19966148,12.2909447 9.19966148,11.1411019 C9.19966148,9.99081425 10.140513,9.0581245 11.3013155,9.0581245 C12.4612203,9.0581245 13.4016229,9.99081425 13.4016229,11.1411019" id="Fill-119" fill="#DADCD8"></path>
                                <path d="M13.4016229,11.1411019 C13.4016229,12.2909447 12.4612203,13.2231894 11.3013155,13.2231894 C10.140513,13.2231894 9.19966148,12.2909447 9.19966148,11.1411019 C9.19966148,9.99081425 10.140513,9.0581245 11.3013155,9.0581245 C12.4612203,9.0581245 13.4016229,9.99081425 13.4016229,11.1411019 Z" id="Stroke-120" stroke="#2B2D2C"></path>
                                <polygon id="Fill-121" fill="#2B2D2C" points="9.22704314 6.14305909 12.3692 6.14305909 12.3692 5.22679876 9.22704314 5.22679876"></polygon>
                                <polygon id="Fill-122" fill="#2B2D2C" points="9.22704314 17.2676983 12.3692 17.2676983 12.3692 16.351438 9.22704314 16.351438"></polygon>
                                <polygon id="Fill-123" fill="#2B2D2C" points="15.5113568 12.7915534 16.4310001 12.7915534 16.4310001 9.67665444 15.5113568 9.67665444"></polygon>
                                <polygon id="Fill-124" fill="#2B2D2C" points="5.1871272 12.7915534 6.10677044 12.7915534 6.10677044 9.67665444 5.1871272 9.67665444"></polygon>
                            </g>
                            <path d="M160.375236,77.5569797 C160.375236,83.6172381 155.420055,88.5303238 149.306316,88.5303238 C143.193025,88.5303238 138.236946,83.6172381 138.236946,77.5569797 C138.236946,71.4962762 143.193025,66.5831906 149.306316,66.5831906 C155.420055,66.5831906 160.375236,71.4962762 160.375236,77.5569797" id="Fill-125" fill="#3E3E3F"></path>
                            <path d="M156.497366,77.5569797 C156.497366,81.493767 153.278002,84.6856485 149.306764,84.6856485 C145.335078,84.6856485 142.116163,81.493767 142.116163,77.5569797 C142.116163,73.6197474 145.335078,70.4283109 149.306764,70.4283109 C153.278002,70.4283109 156.497366,73.6197474 156.497366,77.5569797" id="Fill-126" fill="#BCBEBB"></path>
                            <path d="M151.407072,77.5569797 C151.407072,78.7068224 150.466669,79.6390671 149.306764,79.6390671 C148.145962,79.6390671 147.20511,78.7068224 147.20511,77.5569797 C147.20511,76.406692 148.145962,75.4740022 149.306764,75.4740022 C150.466669,75.4740022 151.407072,76.406692 151.407072,77.5569797" id="Fill-127" fill="#DADCD8"></path>
                            <path d="M151.407072,77.5569797 C151.407072,78.7068224 150.466669,79.6390671 149.306764,79.6390671 C148.145962,79.6390671 147.20511,78.7068224 147.20511,77.5569797 C147.20511,76.406692 148.145962,75.4740022 149.306764,75.4740022 C150.466669,75.4740022 151.407072,76.406692 151.407072,77.5569797 Z" id="Stroke-128" stroke="#2B2D2C"></path>
                            <polygon id="Fill-129" fill="#2B2D2C" points="147.232492 72.5589368 150.374649 72.5589368 150.374649 71.6426765 147.232492 71.6426765"></polygon>
                            <polygon id="Fill-130" fill="#2B2D2C" points="147.232492 83.683576 150.374649 83.683576 150.374649 82.7673157 147.232492 82.7673157"></polygon>
                            <polygon id="Fill-131" fill="#2B2D2C" points="153.516806 79.2074311 154.436449 79.2074311 154.436449 76.0925322 153.516806 76.0925322"></polygon>
                            <polygon id="Fill-132" fill="#2B2D2C" points="143.192576 79.2074311 144.112219 79.2074311 144.112219 76.0925322 143.192576 76.0925322"></polygon>
                            <path d="M16.1596638,53.9318059 C16.1596638,54.3741215 15.7978668,54.7332249 15.3512317,54.7332249 L11.1326617,54.7332249 C10.6860265,54.7332249 10.3242296,54.3741215 10.3242296,53.9318059 L10.3242296,53.7547016 C10.3242296,53.312386 10.6860265,52.9532826 11.1326617,52.9532826 L15.3512317,52.9532826 C15.7978668,52.9532826 16.1596638,53.312386 16.1596638,53.7547016 L16.1596638,53.9318059" id="Fill-134" fill="#9194CE"></path>
                            <polygon id="Fill-137" fill="#D4D5D6" points="54.763305 66.3028497 192.120447 66.3028497 192.120447 0 54.763305 0"></polygon>
                            <polygon id="Fill-141" fill="#DADCD8" points="58.3543414 64.5229074 189.42717 64.5229074 189.42717 62.2979795 58.3543414 62.2979795"></polygon>
                            <path d="M60.5987391,2.26052669 C60.5987391,2.73265637 60.2127027,3.11489898 59.7364415,3.11489898 L56.9722412,3.11489898 C56.49598,3.11489898 56.1099436,2.73265637 56.1099436,2.26052669 L56.1099436,2.189329 C56.1099436,1.71719931 56.49598,1.3349567 56.9722412,1.3349567 L59.7364415,1.3349567 C60.2127027,1.3349567 60.5987391,1.71719931 60.5987391,2.189329 L60.5987391,2.26052669" id="Fill-142" fill="#9194CE"></path>
                            <path d="M190.324929,2.26052669 C190.324929,2.73265637 189.939341,3.11489898 189.46308,3.11489898 L186.697982,3.11489898 C186.221721,3.11489898 185.836133,2.73265637 185.836133,2.26052669 L185.836133,2.189329 C185.836133,1.71719931 186.221721,1.3349567 186.697982,1.3349567 L189.46308,1.3349567 C189.939341,1.3349567 190.324929,1.71719931 190.324929,2.189329 L190.324929,2.26052669" id="Fill-143" fill="#9194CE"></path>
                            <path d="M156,14.9766161 C156,10.0066033 160.033725,5.97761194 164.999303,5.97761194 L174.140014,5.97761194 C179.110191,5.97761194 183.139316,10.0149914 183.139316,14.9766161 L183.139316,48.9824244 C183.139316,53.9524371 179.105592,57.9814285 174.140014,57.9814285 L164.999303,57.9814285 C160.029125,57.9814285 156,53.9440491 156,48.9824244 L156,14.9766161 Z M124.483374,15.8889637 C124.483374,10.918951 128.517099,6.8899596 133.482677,6.8899596 L142.623388,6.8899596 C147.593566,6.8899596 151.622691,10.927339 151.622691,15.8889637 L151.622691,49.894772 C151.622691,54.8647848 147.588966,58.8937761 142.623388,58.8937761 L133.482677,58.8937761 C128.5125,58.8937761 124.483374,54.8563967 124.483374,49.894772 L124.483374,15.8889637 Z M92.0912871,16.8013114 C92.0912871,11.8312986 96.125012,7.80230726 101.09059,7.80230726 L110.231301,7.80230726 C115.201478,7.80230726 119.230604,11.8396867 119.230604,16.8013114 L119.230604,50.8071197 C119.230604,55.7771324 115.196879,59.8061238 110.231301,59.8061238 L101.09059,59.8061238 C96.1204123,59.8061238 92.0912871,55.7687444 92.0912871,50.8071197 L92.0912871,16.8013114 Z M59.6991998,16.5865139 C59.6991998,11.6165012 63.7329247,7.5875098 68.6985026,7.5875098 L77.8392134,7.5875098 C82.8093911,7.5875098 86.8385162,11.6248892 86.8385162,16.5865139 L86.8385162,50.5923222 C86.8385162,55.562335 82.8047914,59.5913263 77.8392134,59.5913263 L68.6985026,59.5913263 C63.7283249,59.5913263 59.6991998,55.5539469 59.6991998,50.5923222 L59.6991998,16.5865139 Z" id="Combined-Shape" fill="#E2E3E4"></path>
                        </g>
                        <g id="msj-copy-3" transform="translate(110.000000, 0.000000)">
                            <path d="M170.7627,0 L7.23730014,0 C3.24034227,0 0,3.24034227 0,7.23730014 L0,44.5599605 C0,48.5569184 3.24034227,51.7972607 7.23730014,51.7972607 L18.5852978,51.7972607 L18.3862535,65.1319924 C18.3281474,69.0003751 22.8258067,71.1626637 25.8114712,68.7024268 L46.3291058,51.7972607 L170.7627,51.7972607 C174.759658,51.7972607 178,48.5569184 178,44.5599605 L178,7.23730014 C178,3.24034227 174.759658,0 170.7627,0" id="Fill-32" fill="#5A5CBE"></path>
                            <path d="M34.6240008,31.8992537 L34.6240008,20.8526269 L41.7440008,20.8526269 L41.7440008,22.5582388 L36.6400008,22.5582388 L36.6400008,25.2840299 L41.1840008,25.2840299 L41.1840008,26.9577612 L36.6400008,26.9577612 L36.6400008,30.1936418 L42.1280008,30.1936418 L42.1280008,31.8992537 L34.6240008,31.8992537 Z M45.3600007,30.5124478 C45.8720032,30.5124478 46.2453328,30.4513439 46.4800007,30.3291343 C46.7146685,30.2069248 46.8320007,29.9970463 46.8320007,29.6994925 C46.8320007,29.4231926 46.7066686,29.1947173 46.4560007,29.0140597 C46.2053328,28.8334021 45.7920036,28.636807 45.2160007,28.4242687 C44.8639989,28.2967456 44.5413355,28.1612544 44.2480007,28.017791 C43.9546659,27.8743276 43.7013351,27.7069562 43.4880007,27.5156716 C43.2746663,27.3243871 43.106668,27.0932551 42.9840007,26.8222687 C42.8613334,26.5512822 42.8000007,26.219196 42.8000007,25.826 C42.8000007,25.0608618 43.0826645,24.4577932 43.6480007,24.0167761 C44.2133368,23.575759 44.9813292,23.3552537 45.9520007,23.3552537 C46.4426698,23.3552537 46.9119984,23.4004175 47.3600007,23.4907463 C47.8080029,23.5810751 48.1439996,23.6687458 48.3680007,23.7537612 L48.0160007,25.3159104 C47.8026663,25.2202682 47.530669,25.1325974 47.2000007,25.0528955 C46.8693324,24.9731936 46.4853362,24.9333433 46.0480007,24.9333433 C45.653332,24.9333433 45.3333352,24.9997605 45.0880007,25.132597 C44.8426661,25.2654335 44.7200007,25.4699986 44.7200007,25.7462985 C44.7200007,25.8844485 44.7440004,26.0066562 44.7920007,26.1129254 C44.8400009,26.2191946 44.9226668,26.3174921 45.0400007,26.4078209 C45.1573346,26.4981497 45.3119997,26.5884772 45.5040007,26.678806 C45.6960016,26.7691348 45.930666,26.8621189 46.2080007,26.9577612 C46.6666696,27.1277919 47.0559991,27.2951634 47.3760007,27.4598806 C47.6960023,27.6245978 47.9599996,27.8105661 48.1680007,28.017791 C48.3760017,28.225016 48.5280002,28.4614614 48.6240007,28.7271343 C48.7200012,28.9928073 48.7680007,29.3116101 48.7680007,29.6835522 C48.7680007,30.4805711 48.4720036,31.0836397 47.8800007,31.4927761 C47.2879977,31.9019125 46.4426728,32.1064776 45.3440007,32.1064776 C44.607997,32.1064776 44.0160029,32.0453737 43.5680007,31.9231642 C43.1199984,31.8009546 42.8053349,31.7026571 42.6240007,31.6282687 L42.9600007,30.0182985 C43.2480021,30.1351946 43.5919987,30.2467756 43.9920007,30.3530448 C44.3920027,30.459314 44.8479981,30.5124478 45.3600007,30.5124478 Z M55.4880006,27.7707164 C55.4880006,26.909936 55.2933359,26.2404502 54.9040006,25.7622388 C54.5146653,25.2840275 53.8880049,25.0449254 53.0240006,25.0449254 C52.8426663,25.0449254 52.6533349,25.0528954 52.4560006,25.0688358 C52.2586663,25.0847762 52.0640015,25.1193132 51.8720006,25.1724478 L51.8720006,29.938597 C52.0426681,30.0554931 52.2693325,30.1644174 52.5520006,30.2653731 C52.8346687,30.3663289 53.135999,30.416806 53.4560006,30.416806 C54.1600041,30.416806 54.6746656,30.1777039 55.0000006,29.6994925 C55.3253355,29.2212812 55.4880006,28.5783622 55.4880006,27.7707164 Z M57.4720006,27.7388358 C57.4720006,28.3764509 57.3893347,28.9609227 57.2240006,29.4922687 C57.0586664,30.0236146 56.8213355,30.4805653 56.5120006,30.8631343 C56.2026657,31.2457034 55.8160029,31.5432527 55.3520006,31.755791 C54.8879983,31.9683294 54.3626702,32.074597 53.7760006,32.074597 C53.3813319,32.074597 53.0186689,32.0267766 52.6880006,31.9311343 C52.3573323,31.8354921 52.085335,31.7292245 51.8720006,31.6123284 L51.8720006,34.848209 L49.9360006,34.848209 L49.9360006,23.8334627 C50.3306692,23.7271935 50.8159977,23.6262393 51.3920006,23.530597 C51.9680035,23.4349547 52.5759974,23.3871343 53.2160006,23.3871343 C53.8773372,23.3871343 54.4693313,23.4880885 54.9920006,23.69 C55.5146699,23.8919115 55.9599987,24.1814907 56.3280006,24.5587463 C56.6960024,24.9360019 56.9786663,25.3929525 57.1760006,25.9296119 C57.3733349,26.4662713 57.4720006,27.0693399 57.4720006,27.7388358 Z M58.3680005,27.7707164 C58.3680005,27.037459 58.4773327,26.3945401 58.6960005,25.8419403 C58.9146682,25.2893405 59.205332,24.8297332 59.5680005,24.4631045 C59.930669,24.0964758 60.3466648,23.82018 60.8160005,23.634209 C61.2853362,23.4482379 61.7653314,23.3552537 62.2560005,23.3552537 C63.4080062,23.3552537 64.3066639,23.7112502 64.9520005,24.4232537 C65.597337,25.1352573 65.9200005,26.1979332 65.9200005,27.6113134 C65.9200005,27.7175826 65.9173338,27.8371337 65.9120005,27.9699701 C65.9066671,28.1028066 65.8986672,28.2223577 65.8880005,28.3286269 L60.3680005,28.3286269 C60.4213341,28.9981228 60.658665,29.5161773 61.0800005,29.882806 C61.5013359,30.2494347 62.1119965,30.4327463 62.9120005,30.4327463 C63.3813362,30.4327463 63.8106652,30.3902392 64.2000005,30.3052239 C64.5893358,30.2202085 64.8959994,30.1298811 65.1200005,30.0342388 L65.3760005,31.6123284 C65.2693333,31.665463 65.1226681,31.7212534 64.9360005,31.7797015 C64.7493329,31.8381495 64.5360017,31.8912833 64.2960005,31.9391045 C64.0559993,31.9869256 63.7973352,32.026776 63.5200005,32.0586567 C63.2426658,32.0905375 62.9600019,32.1064776 62.6720005,32.1064776 C61.9359968,32.1064776 61.2960032,31.9975533 60.7520005,31.7797015 C60.2079978,31.5618497 59.7600022,31.258987 59.4080005,30.8711045 C59.0559987,30.4832219 58.794668,30.0262713 58.6240005,29.5002388 C58.453333,28.9742063 58.3680005,28.3977046 58.3680005,27.7707164 Z M63.9840005,26.9099403 C63.9840005,26.6442673 63.9466675,26.3918818 63.8720005,26.1527761 C63.7973334,25.9136704 63.6880012,25.7064486 63.5440005,25.5311045 C63.3999998,25.3557603 63.2240015,25.2176124 63.0160005,25.1166567 C62.8079994,25.015701 62.5600019,24.9652239 62.2720005,24.9652239 C61.9733323,24.9652239 61.7120016,25.0210144 61.4880005,25.132597 C61.2639994,25.2441797 61.0746679,25.3902976 60.9200005,25.5709552 C60.765333,25.7516128 60.6453342,25.9588347 60.5600005,26.1926269 C60.4746667,26.4264191 60.4160006,26.6655212 60.3840005,26.9099403 L63.9840005,26.9099403 Z M72.0960004,25.2999701 C71.9359996,25.2468356 71.7146684,25.1910451 71.4320004,25.132597 C71.1493323,25.074149 70.8213356,25.0449254 70.4480004,25.0449254 C70.234666,25.0449254 70.0080016,25.0661789 69.7680004,25.1086866 C69.5279992,25.1511942 69.3600008,25.1883879 69.2640004,25.2202687 L69.2640004,31.8992537 L67.3280004,31.8992537 L67.3280004,23.9609851 C67.7013356,23.8228351 68.1679976,23.6926573 68.7280004,23.5704478 C69.2880032,23.4482382 69.9093303,23.3871343 70.5920004,23.3871343 C70.720001,23.3871343 70.8693328,23.3951044 71.0400004,23.4110448 C71.2106679,23.4269852 71.3813328,23.4482387 71.5520004,23.474806 C71.7226679,23.5013733 71.8879996,23.5332535 72.0480004,23.5704478 C72.2080012,23.607642 72.3359999,23.6421789 72.4320004,23.6740597 L72.0960004,25.2999701 Z M76.0800003,30.5443284 C76.6773366,30.5443284 77.1306654,30.5124481 77.4400003,30.4486866 L77.4400003,28.3126866 C77.3333331,28.2808058 77.1786679,28.2489255 76.9760003,28.2170448 C76.7733326,28.185164 76.5493348,28.1692239 76.3040003,28.1692239 C76.0906659,28.1692239 75.874668,28.185164 75.6560003,28.2170448 C75.4373325,28.2489255 75.2400011,28.3073727 75.0640003,28.3923881 C74.8879994,28.4774034 74.7466675,28.5969545 74.6400003,28.7510448 C74.5333331,28.9051351 74.4800003,29.0990735 74.4800003,29.3328657 C74.4800003,29.7898232 74.6239988,30.1059693 74.9120003,30.2813134 C75.2000017,30.4566576 75.5893311,30.5443284 76.0800003,30.5443284 Z M75.9200003,23.3552537 C76.5600035,23.3552537 77.0986647,23.4349544 77.5360003,23.5943582 C77.9733358,23.753762 78.3226656,23.9769239 78.5840003,24.2638507 C78.8453349,24.5507776 79.0319997,24.8988039 79.1440003,25.3079403 C79.2560008,25.7170767 79.3120003,26.1660573 79.3120003,26.6548955 L79.3120003,31.7079701 C79.0133321,31.7717317 78.5626699,31.8487757 77.9600003,31.9391045 C77.3573306,32.0294333 76.6773374,32.074597 75.9200003,32.074597 C75.4186644,32.074597 74.9600023,32.0267766 74.5440003,31.9311343 C74.1279982,31.8354921 73.7733351,31.681404 73.4800003,31.4688657 C73.1866655,31.2563273 72.9573344,30.9800316 72.7920003,30.6399701 C72.6266661,30.2999087 72.5440003,29.8801518 72.5440003,29.3806866 C72.5440003,28.9024752 72.6373327,28.4986584 72.8240003,28.1692239 C73.0106679,27.8397894 73.2639987,27.5714637 73.5840003,27.3642388 C73.9040019,27.1570139 74.2746648,27.0082393 74.6960003,26.9179104 C75.1173357,26.8275816 75.5573313,26.7824179 76.0160003,26.7824179 C76.2293347,26.7824179 76.4533324,26.7957014 76.6880003,26.8222687 C76.9226681,26.848836 77.1733323,26.8939997 77.4400003,26.9577612 L77.4400003,26.6389552 C77.4400003,26.4157899 77.4133339,26.2032547 77.3600003,26.0013433 C77.3066667,25.7994318 77.2133343,25.6214336 77.0800003,25.4673433 C76.9466663,25.313253 76.770668,25.1937019 76.5520003,25.1086866 C76.3333325,25.0236712 76.0586686,24.9811642 75.7280003,24.9811642 C75.279998,24.9811642 74.8693355,25.0130445 74.4960003,25.076806 C74.1226651,25.1405675 73.8186681,25.2149548 73.5840003,25.2999701 L73.3440003,23.7378209 C73.5893348,23.6528055 73.9466646,23.5677915 74.4160003,23.4827761 C74.8853359,23.3977608 75.3866643,23.3552537 75.9200003,23.3552537 Z M81.0400002,23.8334627 C81.4133354,23.7271935 81.8986638,23.6262393 82.4960002,23.530597 C83.0933365,23.4349547 83.7546632,23.3871343 84.4800002,23.3871343 C85.1626702,23.3871343 85.7333312,23.4801185 86.1920002,23.6660896 C86.6506691,23.8520606 87.0159988,24.1124162 87.2880002,24.4471642 C87.5600015,24.7819121 87.7519996,25.185729 87.8640002,25.6586269 C87.9760007,26.1315248 88.0320002,26.6495793 88.0320002,27.212806 L88.0320002,31.8992537 L86.0960002,31.8992537 L86.0960002,27.5156716 C86.0960002,27.0693411 86.0666671,26.6894344 86.0080002,26.3759403 C85.9493332,26.0624462 85.8533342,25.807404 85.7200002,25.610806 C85.5866662,25.414208 85.4053346,25.2707467 85.1760002,25.1804179 C84.9466657,25.0900891 84.6666685,25.0449254 84.3360002,25.0449254 C84.0906656,25.0449254 83.8346682,25.0608655 83.5680002,25.0927463 C83.3013322,25.124627 83.1040008,25.1511939 82.9760002,25.1724478 L82.9760002,31.8992537 L81.0400002,31.8992537 L81.0400002,23.8334627 Z M91.2800001,27.7069552 C91.2800001,28.5571087 91.4826647,29.2239379 91.8880001,29.7074627 C92.2933354,30.1909875 92.8533298,30.4327463 93.5680001,30.4327463 C93.8773349,30.4327463 94.1413323,30.4194628 94.3600001,30.3928955 C94.5786678,30.3663282 94.7573327,30.3371046 94.8960001,30.3052239 L94.8960001,25.5231343 C94.7253325,25.4062382 94.4986681,25.2973139 94.2160001,25.1963582 C93.933332,25.0954025 93.6320017,25.0449254 93.3120001,25.0449254 C92.6079965,25.0449254 92.093335,25.2840275 91.7680001,25.7622388 C91.4426651,26.2404502 91.2800001,26.8886825 91.2800001,27.7069552 Z M96.8320001,31.644209 C96.4479981,31.7611051 95.9653363,31.8673727 95.3840001,31.9630149 C94.8026638,32.0586572 94.1920033,32.1064776 93.5520001,32.1064776 C92.8906634,32.1064776 92.2986693,32.0055234 91.7760001,31.8036119 C91.2533308,31.6017005 90.8080019,31.3121213 90.4400001,30.9348657 C90.0719982,30.5576101 89.7893344,30.1006594 89.5920001,29.564 C89.3946657,29.0273406 89.2960001,28.424272 89.2960001,27.7547761 C89.2960001,27.0959072 89.3786659,26.4981519 89.5440001,25.9614925 C89.7093342,25.4248331 89.9519985,24.9652258 90.2720001,24.5826567 C90.5920017,24.2000876 90.9813311,23.9051951 91.4400001,23.6979701 C91.898669,23.4907452 92.4266637,23.3871343 93.0240001,23.3871343 C93.4293354,23.3871343 93.7866652,23.4349547 94.0960001,23.530597 C94.4053349,23.6262393 94.6719989,23.7325069 94.8960001,23.849403 L94.8960001,19.8483881 L96.8320001,19.5295821 L96.8320001,31.644209 Z M106.224,27.7228955 C106.224,28.3817645 106.128001,28.9821764 105.936,29.5241493 C105.743999,30.0661221 105.472002,30.5283861 105.12,30.9109552 C104.767998,31.2935243 104.344002,31.5910736 103.848,31.8036119 C103.351997,32.0161503 102.805336,32.1224179 102.208,32.1224179 C101.610664,32.1224179 101.066669,32.0161503 100.576,31.8036119 C100.085331,31.5910736 99.6640017,31.2935243 99.3119999,30.9109552 C98.9599982,30.5283861 98.6853343,30.0661221 98.4879999,29.5241493 C98.2906656,28.9821764 98.1919999,28.3817645 98.1919999,27.7228955 C98.1919999,27.0640266 98.2906656,26.4662713 98.4879999,25.9296119 C98.6853343,25.3929525 98.9626648,24.9333452 99.3199999,24.5507761 C99.6773351,24.168207 100.101331,23.8733145 100.592,23.6660896 C101.082669,23.4588646 101.62133,23.3552537 102.208,23.3552537 C102.79467,23.3552537 103.335997,23.4588646 103.832,23.6660896 C104.328002,23.8733145 104.751998,24.168207 105.104,24.5507761 C105.456002,24.9333452 105.730666,25.3929525 105.928,25.9296119 C106.125334,26.4662713 106.224,27.0640266 106.224,27.7228955 Z M104.24,27.7228955 C104.24,26.8939959 104.061335,26.2377935 103.704,25.7542687 C103.346665,25.2707439 102.848003,25.0289851 102.208,25.0289851 C101.567997,25.0289851 101.069335,25.2707439 100.712,25.7542687 C100.354665,26.2377935 100.176,26.8939959 100.176,27.7228955 C100.176,28.5624221 100.354665,29.2265946 100.712,29.7154328 C101.069335,30.2042711 101.567997,30.4486866 102.208,30.4486866 C102.848003,30.4486866 103.346665,30.2042711 103.704,29.7154328 C104.061335,29.2265946 104.24,28.5624221 104.24,27.7228955 Z M110.208,27.7388358 C110.208,27.1224745 110.303999,26.5459728 110.496,26.0093134 C110.688001,25.472654 110.962665,25.0077333 111.32,24.6145373 C111.677335,24.2213413 112.111997,23.9131653 112.624,23.69 C113.136002,23.4668347 113.711997,23.3552537 114.352,23.3552537 C115.141337,23.3552537 115.887996,23.498715 116.592,23.7856418 L116.176,25.3637313 C115.951999,25.2680891 115.698668,25.1883884 115.416,25.1246269 C115.133332,25.0608654 114.832001,25.0289851 114.512,25.0289851 C113.754663,25.0289851 113.178668,25.2654305 112.784,25.7383284 C112.389331,26.2112262 112.192,26.8780554 112.192,27.7388358 C112.192,28.5677355 112.378665,29.2239379 112.752,29.7074627 C113.125335,30.1909875 113.754662,30.4327463 114.64,30.4327463 C114.970668,30.4327463 115.295998,30.400866 115.616,30.3371045 C115.936001,30.273343 116.213332,30.1936423 116.448,30.098 L116.72,31.6920299 C116.506665,31.798299 116.184002,31.8939399 115.752,31.9789552 C115.319998,32.0639706 114.874669,32.1064776 114.416,32.1064776 C113.701329,32.1064776 113.080002,31.9975533 112.552,31.7797015 C112.023997,31.5618497 111.586668,31.258987 111.24,30.8711045 C110.893331,30.4832219 110.634667,30.0209579 110.464,29.4842985 C110.293332,28.9476391 110.208,28.365824 110.208,27.7388358 Z M120.528,30.5443284 C121.125336,30.5443284 121.578665,30.5124481 121.888,30.4486866 L121.888,28.3126866 C121.781332,28.2808058 121.626667,28.2489255 121.424,28.2170448 C121.221332,28.185164 120.997334,28.1692239 120.752,28.1692239 C120.538665,28.1692239 120.322667,28.185164 120.104,28.2170448 C119.885332,28.2489255 119.688001,28.3073727 119.512,28.3923881 C119.335999,28.4774034 119.194667,28.5969545 119.088,28.7510448 C118.981332,28.9051351 118.928,29.0990735 118.928,29.3328657 C118.928,29.7898232 119.071998,30.1059693 119.36,30.2813134 C119.648001,30.4566576 120.037331,30.5443284 120.528,30.5443284 Z M120.368,23.3552537 C121.008003,23.3552537 121.546664,23.4349544 121.984,23.5943582 C122.421335,23.753762 122.770665,23.9769239 123.032,24.2638507 C123.293334,24.5507776 123.479999,24.8988039 123.592,25.3079403 C123.704,25.7170767 123.76,26.1660573 123.76,26.6548955 L123.76,31.7079701 C123.461331,31.7717317 123.010669,31.8487757 122.408,31.9391045 C121.80533,32.0294333 121.125337,32.074597 120.368,32.074597 C119.866664,32.074597 119.408002,32.0267766 118.992,31.9311343 C118.575998,31.8354921 118.221334,31.681404 117.928,31.4688657 C117.634665,31.2563273 117.405334,30.9800316 117.24,30.6399701 C117.074665,30.2999087 116.992,29.8801518 116.992,29.3806866 C116.992,28.9024752 117.085332,28.4986584 117.272,28.1692239 C117.458667,27.8397894 117.711998,27.5714637 118.032,27.3642388 C118.352001,27.1570139 118.722664,27.0082393 119.144,26.9179104 C119.565335,26.8275816 120.005331,26.7824179 120.464,26.7824179 C120.677334,26.7824179 120.901332,26.7957014 121.136,26.8222687 C121.370667,26.848836 121.621332,26.8939997 121.888,26.9577612 L121.888,26.6389552 C121.888,26.4157899 121.861333,26.2032547 121.808,26.0013433 C121.754666,25.7994318 121.661334,25.6214336 121.528,25.4673433 C121.394666,25.313253 121.218667,25.1937019 121,25.1086866 C120.781332,25.0236712 120.506668,24.9811642 120.176,24.9811642 C119.727997,24.9811642 119.317335,25.0130445 118.944,25.076806 C118.570664,25.1405675 118.266667,25.2149548 118.032,25.2999701 L117.792,23.7378209 C118.037334,23.6528055 118.394664,23.5677915 118.864,23.4827761 C119.333335,23.3977608 119.834664,23.3552537 120.368,23.3552537 Z M130.256,25.2999701 C130.095999,25.2468356 129.874668,25.1910451 129.592,25.132597 C129.309331,25.074149 128.981335,25.0449254 128.608,25.0449254 C128.394665,25.0449254 128.168001,25.0661789 127.928,25.1086866 C127.687998,25.1511942 127.52,25.1883879 127.424,25.2202687 L127.424,31.8992537 L125.488,31.8992537 L125.488,23.9609851 C125.861335,23.8228351 126.327997,23.6926573 126.888,23.5704478 C127.448002,23.4482382 128.069329,23.3871343 128.752,23.3871343 C128.88,23.3871343 129.029332,23.3951044 129.2,23.4110448 C129.370667,23.4269852 129.541332,23.4482387 129.712,23.474806 C129.882667,23.5013733 130.047999,23.5332535 130.208,23.5704478 C130.368,23.607642 130.495999,23.6421789 130.592,23.6740597 L130.256,25.2999701 Z M132.815999,27.5156716 C132.815999,28.3339444 132.994664,28.9316996 133.351999,29.3089552 C133.709335,29.6862108 134.170663,29.8748358 134.735999,29.8748358 C135.045334,29.8748358 135.335998,29.8323288 135.607999,29.7473134 C135.880001,29.6622981 136.101332,29.5613439 136.271999,29.4444478 L136.271999,25.1246269 C136.133332,25.0927461 135.962667,25.0635225 135.759999,25.0369552 C135.557332,25.0103879 135.301334,24.9971045 134.991999,24.9971045 C134.287996,24.9971045 133.749335,25.2282365 133.375999,25.6905075 C133.002664,26.1527784 132.815999,26.7611604 132.815999,27.5156716 Z M138.207999,31.0544179 C138.207999,32.3827828 137.869336,33.3551312 137.191999,33.9714925 C136.514663,34.5878538 135.47734,34.8960299 134.079999,34.8960299 C133.567997,34.8960299 133.069335,34.8535228 132.583999,34.7685075 C132.098664,34.6834921 131.658668,34.5719111 131.263999,34.4337612 L131.615999,32.7919104 C131.946668,32.9300604 132.322664,33.0416414 132.743999,33.1266567 C133.165335,33.2116721 133.62133,33.2541791 134.111999,33.2541791 C134.89067,33.2541791 135.445331,33.0947777 135.775999,32.7759701 C136.106668,32.4571626 136.271999,31.9842718 136.271999,31.3572836 L136.271999,31.0384776 C136.079998,31.1341199 135.826668,31.2297607 135.511999,31.325403 C135.197331,31.4210453 134.837335,31.4688657 134.431999,31.4688657 C133.898663,31.4688657 133.410668,31.3838516 132.967999,31.2138209 C132.525331,31.0437902 132.146668,30.7940613 131.831999,30.4646269 C131.517331,30.1351924 131.272,29.7234055 131.095999,29.2292537 C130.919999,28.735102 130.831999,28.1639137 130.831999,27.5156716 C130.831999,26.9099373 130.925332,26.3520324 131.111999,25.8419403 C131.298667,25.3318482 131.570664,24.8961511 131.927999,24.5348358 C132.285335,24.1735206 132.719997,23.8919115 133.231999,23.69 C133.744002,23.4880885 134.32533,23.3871343 134.975999,23.3871343 C135.605336,23.3871343 136.202663,23.4349547 136.767999,23.530597 C137.333336,23.6262393 137.813331,23.7271935 138.207999,23.8334627 L138.207999,31.0544179 Z M142.975999,30.5443284 C143.573336,30.5443284 144.026664,30.5124481 144.335999,30.4486866 L144.335999,28.3126866 C144.229332,28.2808058 144.074667,28.2489255 143.871999,28.2170448 C143.669332,28.185164 143.445334,28.1692239 143.199999,28.1692239 C142.986665,28.1692239 142.770667,28.185164 142.551999,28.2170448 C142.333332,28.2489255 142.136,28.3073727 141.959999,28.3923881 C141.783998,28.4774034 141.642667,28.5969545 141.535999,28.7510448 C141.429332,28.9051351 141.375999,29.0990735 141.375999,29.3328657 C141.375999,29.7898232 141.519998,30.1059693 141.807999,30.2813134 C142.096001,30.4566576 142.48533,30.5443284 142.975999,30.5443284 Z M142.815999,23.3552537 C143.456003,23.3552537 143.994664,23.4349544 144.431999,23.5943582 C144.869335,23.753762 145.218665,23.9769239 145.479999,24.2638507 C145.741334,24.5507776 145.927999,24.8988039 146.039999,25.3079403 C146.152,25.7170767 146.207999,26.1660573 146.207999,26.6548955 L146.207999,31.7079701 C145.909331,31.7717317 145.458669,31.8487757 144.855999,31.9391045 C144.25333,32.0294333 143.573336,32.074597 142.815999,32.074597 C142.314663,32.074597 141.856001,32.0267766 141.439999,31.9311343 C141.023997,31.8354921 140.669334,31.681404 140.375999,31.4688657 C140.082665,31.2563273 139.853333,30.9800316 139.687999,30.6399701 C139.522665,30.2999087 139.439999,29.8801518 139.439999,29.3806866 C139.439999,28.9024752 139.533332,28.4986584 139.719999,28.1692239 C139.906667,27.8397894 140.159998,27.5714637 140.479999,27.3642388 C140.800001,27.1570139 141.170664,27.0082393 141.591999,26.9179104 C142.013335,26.8275816 142.45333,26.7824179 142.911999,26.7824179 C143.125334,26.7824179 143.349331,26.7957014 143.583999,26.8222687 C143.818667,26.848836 144.069331,26.8939997 144.335999,26.9577612 L144.335999,26.6389552 C144.335999,26.4157899 144.309333,26.2032547 144.255999,26.0013433 C144.202666,25.7994318 144.109333,25.6214336 143.975999,25.4673433 C143.842665,25.313253 143.666667,25.1937019 143.447999,25.1086866 C143.229332,25.0236712 142.954668,24.9811642 142.623999,24.9811642 C142.175997,24.9811642 141.765335,25.0130445 141.391999,25.076806 C141.018664,25.1405675 140.714667,25.2149548 140.479999,25.2999701 L140.239999,23.7378209 C140.485334,23.6528055 140.842664,23.5677915 141.311999,23.4827761 C141.781335,23.3977608 142.282663,23.3552537 142.815999,23.3552537 Z" id="Esperando-carga" fill="#FFFFFF"></path>
                        </g>
                    </g>
                    <polygon id="Rectangle-11" fill="#D8D8D8" transform="translate(30.533655, 150.081971) rotate(-115.000000) translate(-30.533655, -150.081971) " points="28.4377076 117.487897 32.4561416 117.487897 32.629602 182.676045 28.5628947 180.785481"></polygon>
                </g>
            </g>
        </g>
        <path d="M568,296 C570.785301,296 573.190653,295.302819 574.317781,294.293434 C574.755104,293.901794 575,293.463154 575,293 C575,291.343146 571.865993,290 568,290 C564.134007,290 561,291.343146 561,293 C561,294.656854 564.134007,296 568,296 Z" id="Oval-4-Copy-8" fill="#E3E5ED"></path>
        <path d="M189.808904,63.4195592 C178.379831,68.5048462 167.366889,57.5295005 172.469388,46.1394436 C173.60263,43.6101612 175.653565,41.5662275 178.191511,40.4370614 C189.620377,35.3521887 200.632903,46.3271201 195.53082,57.7169698 C194.397786,60.2464594 192.346851,62.290393 189.808904,63.4195592 M184.000104,31 C172.402042,31 163,40.3699453 163,51.9284138 C163,64.3421983 177.316845,73.8486544 182.30814,76.7858121 C183.353873,77.401043 184.64384,77.3981429 185.686872,76.7783548 C190.673594,73.8155107 205,64.2324096 205,51.9284138 C205,40.3699453 195.597958,31 184.000104,31" id="Fill-10" fill="#5A5CBE"></path>
        <ellipse id="Oval-4-Copy-9" fill="#E3E5ED" cx="543" cy="293" rx="7" ry="3"></ellipse>
        <ellipse id="Oval-4-Copy-10" fill="#E3E5ED" cx="518" cy="293" rx="7" ry="3"></ellipse>
        <ellipse id="Oval-4-Copy-11" fill="#E3E5ED" cx="493" cy="293" rx="7" ry="3"></ellipse>
    </g>
</svg>